92.000000
92.000000
92.000000
92.000000
128.000000
128.000000
128.000000
128.000000
168.000000
168.000000
168.000000
168.000000
168.000000
212.000000
212.000000
212.000000
212.000000
212.000000
212.000000
260.000000
260.000000
260.000000
260.000000
260.000000
260.000000
