0.0
0.0
0.0
0.0
0.0
0.0
0.0
0.0
0.0
0.0
0.0
0.0
0.0
0.0
0.0
0.0
0.0
0.0
0.0
0.0
0.0
0.0
0.0
0.0
0.0
0.0
0.0
0.0009758472442626953
0.0
0.0
0.0
0.0
0.0
0.0
0.0
0.0
0.0
0.0
0.0
0.0
0.0
0.0
0.0
0.0
0.0
0.0
0.0
0.0
0.0
0.0
0.0
0.0
0.0
0.0
0.0
0.0
0.0
0.0
0.0
0.0009717941284179688
0.0
0.0
0.0
0.0
0.0
0.0
0.0
0.0
0.0
0.0
0.0009753704071044922
0.0
0.0
0.0
0.0
0.0
0.0
0.0
0.0
0.0
0.0
0.0
0.0
0.0
0.0
0.0
0.0
0.0
0.0
0.0
0.0
0.0
0.0
0.0
0.0
0.0
0.0
0.0
0.0
0.0
0.0009756088256835938
0.0
0.0
0.0
0.0
0.0
0.0
0.0
0.0
0.0
0.0
0.0
0.0
0.0
0.0
0.0
0.0
0.0
0.0009710788726806641
0.0
0.0
0.0
0.0
0.0
0.0
0.0
0.0
0.0
0.0
0.0
0.0
0.0009751319885253906
0.0
0.0
0.0
0.0
0.0
0.0009753704071044922
0.0
0.0
0.0
0.0
0.0009760856628417969
0.0
0.0
0.0
0.0
0.0
0.0
0.0
0.0
0.0009756088256835938
0.0
0.0
0.0
0.0
0.0009751319885253906
0.0
0.0
0.0
0.0
0.0
0.0009753704071044922
0.0
0.0009715557098388672
0.0
0.0
0.0
0.0
0.0
0.0
0.0
0.0009777545928955078
0.0
0.0
0.0
0.0009765625
0.0
0.0
0.0
0.0
0.002925395965576172
0.0
0.0
0.0009760856628417969
0.0
0.000978708267211914
0.0
0.0
0.0
0.0
0.0009758472442626953
0.0
0.0
0.0
0.0
0.0
0.0
0.0
0.0
0.0009734630584716797
0.0
0.0
0.0
0.0
0.0009772777557373047
0.0009748935699462891
0.0
0.0
0.0
0.0
0.0
0.0
0.0
0.0
0.0
0.0
0.0009753704071044922
0.0
0.0
0.0
0.0009753704071044922
0.0
0.0
0.0
0.0009753704071044922
0.0
0.0
0.0
0.0009748935699462891
0.0
0.0
0.0
0.0009756088256835938
0.0
0.0
0.0
0.0
0.0009756088256835938
0.0
0.0
0.0
0.0009753704071044922
0.0
0.0009768009185791016
0.0
0.0
0.0
0.0
0.0
0.0
0.0
0.0009717941284179688
0.0
0.0
0.0
0.0009758472442626953
0.0
0.0
0.0009753704071044922
0.0
0.0
0.0
0.0009748935699462891
0.0
0.0
0.0
0.0009756088256835938
0.0
0.0
0.0
0.0009746551513671875
0.0
0.0
0.0009748935699462891
0.0
0.0
0.0
0.0
0.0
0.0
0.0
0.0
0.0
0.0
0.0009756088256835938
0.0
0.0
0.0
0.0009753704071044922
0.0
0.0
0.0
0.0009753704071044922
0.0
0.0
0.0
0.0009753704071044922
0.0
0.0009768009185791016
0.0
0.0
0.0
0.0
0.0
0.0
0.0009729862213134766
0.0
0.0
0.0009748935699462891
0.0
0.0
0.0009758472442626953
0.0
0.0009753704071044922
0.0
0.0
0.0
0.0
0.0
0.0
0.0009744167327880859
0.0
0.0
0.0
0.0009751319885253906
0.0
0.0
0.0009758472442626953
0.0
0.0
0.0009746551513671875
0.0
0.0
0.0
0.0009753704071044922
0.0
0.0
0.0009753704071044922
0.0
0.0
0.0
0.0
0.0
0.0
0.0009758472442626953
0.0
0.0
0.0009753704071044922
0.0
0.0
0.0
0.0
0.0
0.0009779930114746094
0.0
0.0009768009185791016
0.0
0.0009739398956298828
0.0
0.0
0.0009734630584716797
0.0
0.0
0.0009758472442626953
0.0
0.0
0.0009746551513671875
0.0
0.0
0.0009753704071044922
0.0
0.0
0.0009753704071044922
0.0
0.0009753704071044922
0.0
0.0
0.0009751319885253906
0.0
0.0
0.0009751319885253906
0.0
0.0
0.0009753704071044922
0.0
0.0
0.0009751319885253906
0.0
0.0
0.0009758472442626953
0.0
0.0
0.0009751319885253906
0.0
0.0009768009185791016
0.0
0.0
0.000980377197265625
0.0
0.0
0.0
0.0
0.0009710788726806641
0.0
0.0
0.0009765625
0.0
0.0009732246398925781
0.0
0.000980377197265625
0.0
0.0
0.0009696483612060547
0.0
0.0
0.0
0.0
0.0
0.0
0.0
0.0009751319885253906
0.0
0.0
0.0009748935699462891
0.0
0.0
0.0009756088256835938
0.0
0.0
0.0009751319885253906
0.0
0.0
0.0009753704071044922
0.0
0.0009753704071044922
0.0
0.0
0.0009758472442626953
0.0
0.0009763240814208984
0.0
0.0
0.0
0.0009734630584716797
0.0009760856628417969
0.0
0.0009753704071044922
0.0
0.0
0.0009744167327880859
0.0
0.0
0.0009753704071044922
0.0
0.0009748935699462891
0.0
0.0009758472442626953
0.0
0.0
0.0009746551513671875
0.0
0.0009758472442626953
0.0
0.0
0.0009756088256835938
0.0
0.0
0.0
0.0
0.0009756088256835938
0.0
0.0
0.0009751319885253906
0.0009779930114746094
0.0
0.0009734630584716797
0.0
0.0009753704071044922
0.0
0.0
0.0
0.0
0.0009746551513671875
0.0
0.0009748935699462891
0.0
0.0009760856628417969
0.0
0.0009746551513671875
0.0
0.0
0.0009751319885253906
0.0
0.0009753704071044922
0.0
0.0
0.0
0.0
0.0009748935699462891
0.0
0.0
0.0
0.0
0.0009758472442626953
0.0
0.0009758472442626953
0.0009794235229492188
0.0
0.0009775161743164062
0.0
0.0009725093841552734
0.0
0.0009753704071044922
0.0
0.0009746551513671875
0.0
0.0
0.0009751319885253906
0.0
0.0009751319885253906
0.0
0.0
0.0009756088256835938
0.0
0.0009753704071044922
0.0
0.0009753704071044922
0.0
0.0
0.0009753704071044922
0.0
0.0009753704071044922
0.0
0.0009756088256835938
0.0
0.0
0.0
0.0
0.0009756088256835938
0.0
0.000978231430053711
0.0
0.0009734630584716797
0.0
0.0009748935699462891
0.0
0.0009770393371582031
0.0
0.0009746551513671875
0.0
0.0
0.0
0.0
0.0
0.0
0.0
0.0
0.0
0.0
0.0
0.0009748935699462891
0.0
0.0009748935699462891
0.0
0.0009753704071044922
0.0
0.0009758472442626953
0.0
0.0
0.0
0.0
0.0
0.0
0.0009748935699462891
0.0
0.0
0.0009760856628417969
0.0
0.0
0.0009744167327880859
0.0
0.0009753704071044922
0.0
0.0009748935699462891
0.0
0.0009751319885253906
0.0
0.0009751319885253906
0.0
0.0009748935699462891
0.0
0.0009753704071044922
0.0
0.0009753704071044922
0.0
0.0
0.0
0.0
0.0009758472442626953
0.0
0.0009751319885253906
0.0
0.0009756088256835938
0.0
0.0009751319885253906
0.0
0.0009751319885253906
0.0
0.0
0.0009791851043701172
0.0
0.0009737014770507812
0.0
0.0009746551513671875
0.0
0.0
0.0009751319885253906
0.0
0.0009756088256835938
0.0
0.0
0.0009756088256835938
0.0
0.0009753704071044922
0.0
0.0009753704071044922
0.0
0.0009758472442626953
0.0
0.0009751319885253906
0.0
0.0009756088256835938
0.0009775161743164062
0.0
0.0009770393371582031
0.0009720325469970703
0.0
0.0009753704071044922
0.0
0.0009753704071044922
0.0009751319885253906
0.0009758472442626953
0.0009758472442626953
0.0009746551513671875
0.0
0.0009763240814208984
0.0
0.0009744167327880859
0.0
0.0009748935699462891
0.0
0.0009753704071044922
0.0
0.0
0.0009756088256835938
0.0
0.0009844303131103516
0.0
0.0009658336639404297
0.0
0.000978231430053711
0.0009777545928955078
0.0009760856628417969
0.0009706020355224609
0.0
0.0009748935699462891
0.0
0.0009751319885253906
0.0
0.0009758472442626953
0.0
0.0009756088256835938
0.0
0.0
0.0009751319885253906
0.0
0.0009756088256835938
0.0
0.0009753704071044922
0.0
0.0009753704071044922
0.0
0.0009746551513671875
0.0009777545928955078
0.0
0.0009789466857910156
0.0009708404541015625
0.0
0.0009756088256835938
0.0
0.0009756088256835938
0.0009748935699462891
0.0
0.0
0.0009741783142089844
0.0
0.0009751319885253906
0.0
0.0019562244415283203
0.00682520866394043
0.0
0.0
0.0009739398956298828
0.0019497871398925781
0.0
0.0009744167327880859
0.0009751319885253906
0.0
0.0009756088256835938
0.0
0.0009751319885253906
0.0
0.0
0.0009739398956298828
0.0
0.0
0.0009741783142089844
0.0
0.0
0.0009748935699462891
0.0009758472442626953
0.0
0.0009741783142089844
0.0009763240814208984
0.0
0.0009748935699462891
0.0009753704071044922
0.0
0.0009744167327880859
0.0009753704071044922
0.0
0.0009756088256835938
0.0
0.0009751319885253906
0.0009756088256835938
0.0
0.0009753704071044922
0.0
0.0
0.0009737014770507812
0.0009715557098388672
0.0009760856628417969
0.0
0.0009751319885253906
0.0009751319885253906
0.0009758472442626953
0.0
0.0009748935699462891
0.0
0.0009756088256835938
0.0009751319885253906
0.0
0.0009751319885253906
0.0
0.0009756088256835938
0.0009756088256835938
0.0
0.0009756088256835938
0.0009758472442626953
0.0
0.0009751319885253906
0.0009758472442626953
0.0
0.0009756088256835938
0.0009741783142089844
0.0009760856628417969
0.0
0.0009746551513671875
0.0
0.0
0.0009758472442626953
0.0
0.0009748935699462891
0.0009751319885253906
0.0
0.0009753704071044922
0.0
0.0009751319885253906
0.0009756088256835938
0.0009753704071044922
0.0009751319885253906
0.0009753704071044922
0.0009756088256835938
0.0
0.0009748935699462891
0.0009746551513671875
0.0
0.0009756088256835938
0.0
0.0009751319885253906
0.0009756088256835938
0.0
0.0009751319885253906
0.0
0.0009751319885253906
0.0009756088256835938
0.0
0.0009756088256835938
0.0009751319885253906
0.0
0.0009753704071044922
0.0
0.0009753704071044922
0.0009777545928955078
0.0009741783142089844
0.0
0.0009758472442626953
0.0009775161743164062
0.0009729862213134766
0.0
0.0009744167327880859
0.0009758472442626953
0.0009756088256835938
0.0009741783142089844
0.0
0.0009760856628417969
0.0
0.0009751319885253906
0.0009751319885253906
0.0
0.0009748935699462891
0.0009753704071044922
0.0
0.0009753704071044922
0.0009753704071044922
0.0
0.0009756088256835938
0.000980377197265625
0.0009715557098388672
0.0009758472442626953
0.0009746551513671875
0.0
0.0009744167327880859
0.0009751319885253906
0.0
0.0009753704071044922
0.0009753704071044922
0.0009932518005371094
0.0
0.0009760856628417969
0.0009570121765136719
0.0
0.0009763240814208984
0.0009920597076416016
0.0
0.0
0.0009944438934326172
0.0009760856628417969
0.0009751319885253906
0.0009722709655761719
0.0
0.0
0.0009746551513671875
0.0009741783142089844
0.0009963512420654297
0.0009706020355224609
0.0
0.0009596347808837891
0.0009913444519042969
0.0009586811065673828
0.0
0.000990152359008789
0.0009601116180419922
0.0
0.0009763240814208984
0.000989675521850586
0.0
0.0
0.0009756088256835938
0.0019533634185791016
0.0009918212890625
0.0009729862213134766
0.0
0.0
0.0009894371032714844
0.0009748935699462891
0.0
0.0
0.000980377197265625
0.0009758472442626953
0.0
0.0009746551513671875
0.0009760856628417969
0.0
0.0009605884552001953
0.0009894371032714844
0.0
0.0
0.0009748935699462891
0.0009608268737792969
0.0009763240814208984
0.0009908676147460938
0.0
0.0009598731994628906
0.0009915828704833984
0.0009596347808837891
0.0009744167327880859
0.0009932518005371094
0.0009732246398925781
0.0
0.0009636878967285156
0.0009715557098388672
0.0009911060333251953
0.0009753704071044922
0.0009906291961669922
0.0009601116180419922
0.0
0.0
0.0
0.0009708404541015625
0.0009746551513671875
0.0009927749633789062
0.000957489013671875
0.0009758472442626953
0.0009925365447998047
0.0009751319885253906
0.0
0.0009744167327880859
0.0009756088256835938
0.0009763240814208984
0.0
0.0009586811065673828
0.000989675521850586
0.0009751319885253906
0.0
0.0009756088256835938
0.0009751319885253906
0.0009791851043701172
0.0009582042694091797
0.0009927749633789062
0.0009748935699462891
0.0009732246398925781
0.0009756088256835938
0.0009586811065673828
0.0009751319885253906
0.0009758472442626953
0.000990152359008789
0.0009756088256835938
0.0
0.0009753704071044922
0.0009756088256835938
0.0009758472442626953
0.0009613037109375
0.0009913444519042969
0.0
0.0009589195251464844
0.0009922981262207031
0.0009741783142089844
0.0009591579437255859
0.0009918212890625
0.0009746551513671875
0.0
0.0
0.0009875297546386719
0.00096893310546875
0.0009748935699462891
0.0
0.0009660720825195312
0.0009844303131103516
0.0009760856628417969
0.0
0.000986337661743164
0.0009641647338867188
0.0009679794311523438
0.0009765625
0.0009729862213134766
0.0009741783142089844
0.0009851455688476562
0.0009653568267822266
0.0009853839874267578
0.0
0.0009658336639404297
0.0009844303131103516
0.0009756088256835938
0.0009753704071044922
0.0
0.0009660720825195312
0.0009849071502685547
0.0009748935699462891
0.0009660720825195312
0.0009589195251464844
0.0009856224060058594
0.000965118408203125
0.0009851455688476562
0.0
0.0
0.0009922981262207031
0.0009739398956298828
0.0009751319885253906
0.005852460861206055
0.00389862060546875
0.0029256343841552734
0.0009799003601074219
0.0009920597076416016
0.0009734630584716797
0.0009748935699462891
0.0009577274322509766
0.0009558200836181641
0.0009758472442626953
0.0009739398956298828
0.0009927749633789062
0.0009748935699462891
0.0009760856628417969
0.0
0.0009748935699462891
0.0009756088256835938
0.0009756088256835938
0.0
0.0
0.0009832382202148438
0.0009758472442626953
0.0009753704071044922
0.0
0.0009579658508300781
0.0009942054748535156
0.0009734630584716797
0.0009753704071044922
0.0
0.0
0.0
0.0009648799896240234
0.0009758472442626953
0.0
0.0009753704071044922
0.0009748935699462891
0.0009751319885253906
0.0009760856628417969
0.0009777545928955078
0.0009918212890625
0.0009751319885253906
0.0009567737579345703
0.0009922981262207031
0.0009746551513671875
0.0009756088256835938
0.0
0.0009756088256835938
0.000978231430053711
0.0009551048278808594
0.0009810924530029297
0.0009725093841552734
0.0009763240814208984
0.0
0.0
0.0
0.0009758472442626953
0.0009891986846923828
0.0009758472442626953
0.0009751319885253906
0.0009753704071044922
0.0
0.0
0.0009908676147460938
0.0009756088256835938
0.0009751319885253906
0.0009601116180419922
0.0009768009185791016
0.0009753704071044922
0.000990152359008789
0.0009605884552001953
0.0009753704071044922
0.0
0.0009610652923583984
0.0
0.0
0.0009720325469970703
0.000989675521850586
0.0009751319885253906
0.0009751319885253906
0.0009603500366210938
0.0009932518005371094
0.0009760856628417969
0.0009737014770507812
0.0
0.0009751319885253906
0.0009753704071044922
0.0009741783142089844
0.0009746551513671875
0.0009760856628417969
0.0009748935699462891
0.0009608268737792969
0.0009756088256835938
0.0
0.0009751319885253906
0.0009756088256835938
0.0009751319885253906
0.0009746551513671875
0.0009746551513671875
0.0
0.0
0.0009930133819580078
0.0009746551513671875
0.0009756088256835938
0.0009760856628417969
0.0009758472442626953
0.0009756088256835938
0.0
0.0009741783142089844
0.0009741783142089844
0.0009753704071044922
0.0009756088256835938
0.0009751319885253906
0.0009753704071044922
0.0
0.0
0.0
0.0019500255584716797
0.0009770393371582031
0.0009770393371582031
0.0009849071502685547
0.0009758472442626953
0.0009744167327880859
0.0009756088256835938
0.0009748935699462891
0.0
0.0009734630584716797
0.0
0.0009839534759521484
0.0019328594207763672
0.0009748935699462891
0.0
0.0
0.0
0.0009751319885253906
0.0009951591491699219
0.0009748935699462891
0.0009663105010986328
0.0009756088256835938
0.000965118408203125
0.0009758472442626953
0.0009930133819580078
0.0019321441650390625
0.0009760856628417969
0.0009751319885253906
0.000990152359008789
0.0009593963623046875
0.0009758472442626953
0.0009763240814208984
0.0009894371032714844
0.0009701251983642578
0.0009751319885253906
0.0009756088256835938
0.0009756088256835938
0.0009756088256835938
0.0009746551513671875
0.0009660720825195312
0.0009748935699462891
0.0
0.0
0.0009751319885253906
0.0009756088256835938
0.0009751319885253906
0.0009877681732177734
0.0019385814666748047
0.000993967056274414
0.001932382583618164
0.0019512176513671875
0.0009751319885253906
0.0009748935699462891
0.0009844303131103516
0.00098419189453125
0.0009753704071044922
0.0009753704071044922
0.0009753704071044922
0.0009748935699462891
0.0009584426879882812
0.0009756088256835938
0.0009746551513671875
0.000995635986328125
0.0
0.0009682178497314453
0.0009949207305908203
0.0009734630584716797
0.0009572505950927734
0.0
0.0
0.0
0.0009760856628417969
0.0009758472442626953
0.0009744167327880859
0.0
0.0
0.0009756088256835938
0.0009756088256835938
0.0009949207305908203
0.0009746551513671875
0.0009572505950927734
0.0009744167327880859
0.000988006591796875
0.0009746551513671875
0.0009763240814208984
0.0009746551513671875
0.0009748935699462891
0.0009729862213134766
0.0009753704071044922
0.0009753704071044922
0.0009741783142089844
0.0009837150573730469
0.0009737014770507812
0.0009751319885253906
0.0009746551513671875
0.0
0.0
0.0
0.0009756088256835938
0.0009746551513671875
0.0009753704071044922
0.0019512176513671875
0.0009903907775878906
0.0009601116180419922
0.0009756088256835938
0.0
0.0009751319885253906
0.0009748935699462891
0.0009932518005371094
0.0009744167327880859
0.0009751319885253906
0.0009753704071044922
0.002923250198364258
0.0019516944885253906
0.004875659942626953
0.0058519840240478516
0.0009741783142089844
0.000993490219116211
0.0
0.0
0.000988006591796875
0.000957489013671875
0.0009930133819580078
0.0009584426879882812
0.0009927749633789062
0.0009570121765136719
0.0009758472442626953
0.0
0.0009763240814208984
0.0009751319885253906
0.0009753704071044922
0.0009949207305908203
0.0009751319885253906
0.0009756088256835938
0.0009748935699462891
0.0009756088256835938
0.0009737014770507812
0.0009758472442626953
0.0009751319885253906
0.0009751319885253906
0.0009748935699462891
0.0009763240814208984
0.0009746551513671875
0.0
0.0
0.0009577274322509766
0.0009756088256835938
0.0009922981262207031
0.0009577274322509766
0.0009717941284179688
0.0009732246398925781
0.0009593963623046875
0.0009756088256835938
0.0009911060333251953
0.0009770393371582031
0.0009593963623046875
0.0019505023956298828
0.0009756088256835938
0.0009748935699462891
0.0009913444519042969
0.0009586811065673828
0.0009753704071044922
0.0009753704071044922
0.0009756088256835938
0.0009751319885253906
0.0009756088256835938
0.0012269020080566406
0.0009701251983642578
0.0009756088256835938
0.0009751319885253906
0.0009756088256835938
0.0009751319885253906
0.0009756088256835938
0.0009751319885253906
0.0009756088256835938
0.0
0.0
0.0009758472442626953
0.0
0.0009760856628417969
0.0009753704071044922
0.000993490219116211
0.0009756088256835938
0.0009751319885253906
0.0009579658508300781
0.0009930133819580078
0.0009753704071044922
0.0009720325469970703
0.0009937286376953125
0.0009753704071044922
0.0009725093841552734
0.0009753704071044922
0.0009624958038330078
0.0009729862213134766
0.0009756088256835938
0.0009751319885253906
0.0009753704071044922
0.0009949207305908203
0.0009565353393554688
0.0009746551513671875
0.0
0.0009882450103759766
0.0009751319885253906
0.0009756088256835938
0.0009725093841552734
0.0009751319885253906
0.0009753704071044922
0.0009706020355224609
0.0009753704071044922
0.0009748935699462891
0.0009758472442626953
0.0009744167327880859
0.0009765625
0.0009725093841552734
0.0009753704071044922
0.000988006591796875
0.0009627342224121094
0.0009756088256835938
0.0009696483612060547
0.0009949207305908203
0.0009763240814208984
0.0009553432464599609
0.0009748935699462891
0.0009937286376953125
0.0009694099426269531
0.0009753704071044922
0.0
0.0
0.0
0.0
0.0
0.0
0.0
0.0
0.0
0.0009756088256835938
0.000988006591796875
0.0009741783142089844
0.0009634494781494141
0.0009608268737792969
0.000990152359008789
0.0009708404541015625
0.0009751319885253906
0.0009756088256835938
0.0009748935699462891
0.0009753704071044922
0.0009751319885253906
0.0009660720825195312
0.000985860824584961
0.000985860824584961
0.0009741783142089844
0.0009748935699462891
0.0009760856628417969
0.0009658336639404297
0.0009763240814208984
0.0009753704071044922
0.0009756088256835938
0.0009772777557373047
0.0009732246398925781
0.0009760856628417969
0.0009808540344238281
0.0019445419311523438
0.0009753704071044922
0.0009753704071044922
0.0009753704071044922
0.0009748935699462891
0.0009758472442626953
0.0009844303131103516
0.0
0.0009751319885253906
0.0009753704071044922
0.0009930133819580078
0.0009918212890625
0.0009701251983642578
0.0009629726409912109
0.0009751319885253906
0.0009655952453613281
0.0009768009185791016
0.0009744167327880859
0.0009794235229492188
0.0009715557098388672
0.0009746551513671875
0.000986337661743164
0.0009627342224121094
0.0009756088256835938
0.0009753704071044922
0.000988006591796875
0.0009756088256835938
0.0019378662109375
0.0009813308715820312
0.000982522964477539
0.0009763240814208984
0.0009715557098388672
0.0009748935699462891
0.0009758472442626953
0.0009927749633789062
0.0009572505950927734
0.0009756088256835938
0.0009746551513671875
0.0009746551513671875
0.0009758472442626953
0.0009756088256835938
0.0009753704071044922
0.0009746551513671875
0.0009760856628417969
0.0009751319885253906
0.010729789733886719
0.009754180908203125
0.0019490718841552734
0.0009922981262207031
0.0009582042694091797
0.0019507408142089844
0.0009763240814208984
0.0009751319885253906
0.0009765625
0.0009751319885253906
0.0009734630584716797
0.0009751319885253906
0.0009756088256835938
0.0009748935699462891
0.0009756088256835938
0.0009753704071044922
0.0009751319885253906
0.0009756088256835938
0.0009753704071044922
0.0009756088256835938
0.0009751319885253906
0.0009751319885253906
0.0009756088256835938
0.0009751319885253906
0.0009753704071044922
0.0009753704071044922
0.0009758472442626953
0.0009744167327880859
0.0009744167327880859
0.0009758472442626953
0.0009751319885253906
0.0009756088256835938
0.0009748935699462891
0.0019538402557373047
0.0009729862213134766
0.0009763240814208984
0.0009739398956298828
0.0009751319885253906
0.0019505023956298828
0.0009758472442626953
0.0009753704071044922
0.0009753704071044922
0.0009751319885253906
0.0009756088256835938
0.0009753704071044922
0.0009753704071044922
0.0009751319885253906
0.0009932518005371094
0.0019505023956298828
0.0009753704071044922
0.0009751319885253906
0.0009753704071044922
0.0009760856628417969
0.0009951591491699219
0.0009748935699462891
0.0009751319885253906
0.0019512176513671875
0.0009734630584716797
0.0009756088256835938
0.0009572505950927734
0.0009756088256835938
0.0009751319885253906
0.0019507408142089844
0.0009927749633789062
0.0009758472442626953
0.0009753704071044922
0.0009751319885253906
0.0009751319885253906
0.0009756088256835938
0.0009753704071044922
0.0009584426879882812
0.0009741783142089844
0.0009737014770507812
0.0009758472442626953
0.0009753704071044922
0.0009753704071044922
0.0009756088256835938
0.0009753704071044922
0.0009570121765136719
0.0009751319885253906
0.0009579658508300781
0.0009751319885253906
0.0009865760803222656
0.0009756088256835938
0.0009753704071044922
0.0009572505950927734
0.0009751319885253906
0.0009779930114746094
0.0009551048278808594
0.0019636154174804688
0.0009753704071044922
0.0009748935699462891
0.0009753704071044922
0.0009751319885253906
0.0009763240814208984
0.0009746551513671875
0.0009624958038330078
0.0009832382202148438
0.0009748935699462891
0.0009586811065673828
0.0009756088256835938
0.0009748935699462891
0.0009751319885253906
0.0009922981262207031
0.0009756088256835938
0.0009748935699462891
0.0009760856628417969
0.0009746551513671875
0.0019338130950927734
0.0009942054748535156
0.0009732246398925781
0.0009751319885253906
0.0009758472442626953
0.0009932518005371094
0.0009748935699462891
0.0009756088256835938
0.0009753704071044922
0.0009756088256835938
0.0009751319885253906
0.0009753704071044922
0.0009751319885253906
0.0009753704071044922
0.0009753704071044922
0.0009756088256835938
0.0009751319885253906
0.0009925365447998047
0.0009856224060058594
0.0019414424896240234
0.0009751319885253906
0.001953125
0.0009558200836181641
0.0009751319885253906
0.0009748935699462891
0.0019507408142089844
0.0009756088256835938
0.0009865760803222656
0.0019562244415283203
0.0009753704071044922
0.001936197280883789
0.00098419189453125
0.0019421577453613281
0.0009739398956298828
0.0009860992431640625
0.0009748935699462891
0.0009682178497314453
0.0009903907775878906
0.0009751319885253906
0.0009751319885253906
0.001958131790161133
0.0009691715240478516
0.0009751319885253906
0.0009741783142089844
0.0009751319885253906
0.000972747802734375
0.0009753704071044922
0.0009648799896240234
0.0009760856628417969
0.0009756088256835938
0.0009751319885253906
0.001950979232788086
0.0009751319885253906
0.0009753704071044922
0.0009756088256835938
0.0009872913360595703
0.0009634494781494141
0.0009815692901611328
0.0009753704071044922
0.0009751319885253906
0.0009753704071044922
0.0009636878967285156
0.0009753704071044922
0.0009632110595703125
0.0009751319885253906
0.0009999275207519531
0.0009500980377197266
0.0009746551513671875
0.0009753704071044922
0.0009760856628417969
0.0009753704071044922
0.0009751319885253906
0.0038924217224121094
0.01170969009399414
0.0009865760803222656
0.0009624958038330078
0.0019724369049072266
0.0009660720825195312
0.0009629726409912109
0.0019681453704833984
0.0009753704071044922
0.0009756088256835938
0.0009753704071044922
0.0019507408142089844
0.0019326210021972656
0.0009870529174804688
0.001955747604370117
0.0009582042694091797
0.0009894371032714844
0.0019459724426269531
0.0009665489196777344
0.0009922981262207031
0.0019330978393554688
0.0009751319885253906
0.0009753704071044922
0.0009756088256835938
0.0009930133819580078
0.0009572505950927734
0.0009646415710449219
0.0019512176513671875
0.0019521713256835938
0.0009829998016357422
0.0019507408142089844
0.0009746551513671875
0.0009751319885253906
0.0009758472442626953
0.0009753704071044922
0.0019505023956298828
0.001950979232788086
0.000988006591796875
0.0009844303131103516
0.0009746551513671875
0.0009753704071044922
0.0009887218475341797
0.0009579658508300781
0.0009756088256835938
0.0009694099426269531
0.0009753704071044922
0.0019502639770507812
0.0009741783142089844
0.0009763240814208984
0.0009751319885253906
0.0009701251983642578
0.0009884834289550781
0.0009753704071044922
0.0009748935699462891
0.0009660720825195312
0.0009751319885253906
0.0009655952453613281
0.0009753704071044922
0.0009882450103759766
0.0009903907775878906
0.0009756088256835938
0.0009753704071044922
0.0009815692901611328
0.0009751319885253906
0.0009834766387939453
0.0019333362579345703
0.0009751319885253906
0.0009648799896240234
0.0009853839874267578
0.001951456069946289
0.0009748935699462891
0.0009753704071044922
0.0009756088256835938
0.0009746551513671875
0.000985860824584961
0.0009653568267822266
0.0009965896606445312
0.0009722709655761719
0.0009851455688476562
0.0009906291961669922
0.0019354820251464844
0.0009758472442626953
0.00196075439453125
0.000965118408203125
0.0019524097442626953
0.0009872913360595703
0.0019378662109375
0.0009891986846923828
0.0019392967224121094
0.0009725093841552734
0.0009751319885253906
0.0009746551513671875
0.0009756088256835938
0.0009751319885253906
0.0009756088256835938
0.0019500255584716797
0.0009756088256835938
0.0009756088256835938
0.0019505023956298828
0.0009789466857910156
0.0009717941284179688
0.0019505023956298828
0.0009930133819580078
0.0019555091857910156
0.0009529590606689453
0.0009624958038330078
0.0009753704071044922
0.0009751319885253906
0.0019500255584716797
0.0009753704071044922
0.0009753704071044922
0.0009751319885253906
0.0009646415710449219
0.0009744167327880859
0.0009646415710449219
0.0009877681732177734
0.0009758472442626953
0.001955747604370117
0.0009753704071044922
0.000986337661743164
0.0019507408142089844
0.0009860992431640625
0.0009753704071044922
0.0019497871398925781
0.0009756088256835938
0.0009751319885253906
0.0009753704071044922
0.0019505023956298828
0.0009758472442626953
0.0009756088256835938
0.0009746551513671875
0.001950979232788086
0.0009753704071044922
0.0009751319885253906
0.0019559860229492188
0.0009756088256835938
0.001936197280883789
0.0019598007202148438
0.0009758472442626953
0.0009815692901611328
0.0019609928131103516
0.000965118408203125
0.0009851455688476562
0.001950979232788086
0.000978708267211914
0.0019478797912597656
0.0009746551513671875
0.0019505023956298828
0.0009756088256835938
0.0009751319885253906
0.0009832382202148438
0.0029175281524658203
0.0078046321868896484
0.0009722709655761719
0.0019507408142089844
0.0009763240814208984
0.0019481182098388672
0.0009753704071044922
0.0009756088256835938
0.0019500255584716797
0.000995635986328125
0.0009748935699462891
0.0009753704071044922
0.0009739398956298828
0.0009763240814208984
0.0019495487213134766
0.0009753704071044922
0.0009577274322509766
0.0009930133819580078
0.0009756088256835938
0.0019507408142089844
0.0009627342224121094
0.0009932518005371094
0.0009701251983642578
0.001955747604370117
0.000972747802734375
0.0019359588623046875
0.0009922981262207031
0.0019502639770507812
0.0009684562683105469
0.0009758472442626953
0.0009875297546386719
0.0009725093841552734
0.0009779930114746094
0.0009922981262207031
0.0009756088256835938
0.0019333362579345703
0.0009887218475341797
0.0009744167327880859
0.0009553432464599609
0.0009763240814208984
0.0009622573852539062
0.000988006591796875
0.0019505023956298828
0.0009760856628417969
0.0009753704071044922
0.0019505023956298828
0.0009796619415283203
0.0009748935699462891
0.000993490219116211
0.0019328594207763672
0.0009944438934326172
0.001950979232788086
0.0009562969207763672
0.001964569091796875
0.0009739398956298828
0.0009753704071044922
0.0009737014770507812
0.0009748935699462891
0.0009813308715820312
0.0009801387786865234
0.0009770393371582031
0.0019485950469970703
0.0009760856628417969
0.001963376998901367
0.0009748935699462891
0.0019502639770507812
0.0009729862213134766
0.0019402503967285156
0.0009882450103759766
0.0009751319885253906
0.0019507408142089844
0.0009906291961669922
0.0009751319885253906
0.0019483566284179688
0.0009748935699462891
0.0009658336639404297
0.0019505023956298828
0.0009906291961669922
0.0009734630584716797
0.0009753704071044922
0.0019474029541015625
0.000965118408203125
0.0019512176513671875
0.0009758472442626953
0.0009753704071044922
0.001963376998901367
0.0019383430480957031
0.0009751319885253906
0.0009746551513671875
0.0009751319885253906
0.0009729862213134766
0.0009899139404296875
0.0009746551513671875
0.0019516944885253906
0.0009746551513671875
0.0019378662109375
0.0009741783142089844
0.001954793930053711
0.0009751319885253906
0.001934051513671875
0.0009884834289550781
0.0019383430480957031
0.001949310302734375
0.0009753704071044922
0.0019502639770507812
0.0009884834289550781
0.0009624958038330078
0.0009658336639404297
0.0009753704071044922
0.0019502639770507812
0.0009756088256835938
0.0009753704071044922
0.0019507408142089844
0.0009679794311523438
0.001950979232788086
0.0009756088256835938
0.0009746551513671875
0.0009760856628417969
0.0019383430480957031
0.0009882450103759766
0.0019371509552001953
0.0009894371032714844
0.0019497871398925781
0.0009622573852539062
0.0019505023956298828
0.001955747604370117
0.0009770393371582031
0.0029239654541015625
0.0009875297546386719
0.000990152359008789
0.0019507408142089844
0.0009751319885253906
0.0019502639770507812
0.001950979232788086
0.0009889602661132812
0.0019369125366210938
0.0009756088256835938
0.0009884834289550781
0.0048635005950927734
0.00975489616394043
0.004876136779785156
0.0019860267639160156
0.00191497802734375
0.0019507408142089844
0.0009872913360595703
0.0019385814666748047
0.0009756088256835938
0.0009751319885253906
0.001950979232788086
0.0009753704071044922
0.00585174560546875
0.0009756088256835938
0.0019505023956298828
0.0019507408142089844
0.001950979232788086
0.0019512176513671875
0.0019495487213134766
0.0009760856628417969
0.0009746551513671875
0.0019505023956298828
0.0009751319885253906
0.0019521713256835938
0.0009729862213134766
0.0019495487213134766
0.0009756088256835938
0.0009756088256835938
0.0019507408142089844
0.0009751319885253906
0.001950979232788086
0.0009753704071044922
0.0019507408142089844
0.0009756088256835938
0.0009751319885253906
0.0009758472442626953
0.0009753704071044922
0.0019500255584716797
0.0009760856628417969
0.0009748935699462891
0.0009756088256835938
0.0009748935699462891
0.001950979232788086
0.0009753704071044922
0.001950979232788086
0.0009746551513671875
0.001950979232788086
0.0009753704071044922
0.0009753704071044922
0.0019507408142089844
0.0009756088256835938
0.0019502639770507812
0.0009758472442626953
0.0009751319885253906
0.001950979232788086
0.0019528865814208984
0.0009737014770507812
0.0009741783142089844
0.0009756088256835938
0.0019502639770507812
0.0009756088256835938
0.0009756088256835938
0.0019507408142089844
0.0009748935699462891
0.0019567012786865234
0.0019443035125732422
0.0009765625
0.0019497871398925781
0.0009753704071044922
0.0019516944885253906
0.0019495487213134766
0.0009751319885253906
0.0019507408142089844
0.0009756088256835938
0.0019505023956298828
0.0009899139404296875
0.0009753704071044922
0.0009748935699462891
0.0019335746765136719
0.000988006591796875
0.0019507408142089844
0.0009760856628417969
0.0019373893737792969
0.000988006591796875
0.0019383430480957031
0.000988006591796875
0.0019507408142089844
0.0009632110595703125
0.0019502639770507812
0.0019702911376953125
0.0019452571868896484
0.0009748935699462891
0.0009870529174804688
0.0009756088256835938
0.0019507408142089844
0.0009753704071044922
0.0009667873382568359
0.001968860626220703
0.0009706020355224609
0.0019373893737792969
0.001970052719116211
0.0019414424896240234
0.0009760856628417969
0.0019497871398925781
0.0019502639770507812
0.0009729862213134766
0.000980377197265625
0.000985860824584961
0.0009758472442626953
0.0019507408142089844
0.0009753704071044922
0.0019500255584716797
0.0009756088256835938
0.0019383430480957031
0.0009770393371582031
0.001961231231689453
0.0009756088256835938
0.001947641372680664
0.0019507408142089844
0.0009753704071044922
0.0019505023956298828
0.0009655952453613281
0.00196075439453125
0.0019407272338867188
0.0009799003601074219
0.004878997802734375
0.013655662536621094
0.002925872802734375
0.0019507408142089844
0.0009756088256835938
0.0009758472442626953
0.0009751319885253906
0.0019507408142089844
0.0009756088256835938
0.0019507408142089844
0.0009751319885253906
0.0019507408142089844
0.0009756088256835938
0.0019505023956298828
0.0009753704071044922
0.001950979232788086
0.0019502639770507812
0.0009775161743164062
0.0019497871398925781
0.0009741783142089844
0.0019505023956298828
0.0009756088256835938
0.0019505023956298828
0.0019507408142089844
0.0009765625
0.0009763240814208984
0.001949310302734375
0.0009756088256835938
0.0019512176513671875
0.0009746551513671875
0.001950979232788086
0.0019502639770507812
0.0009756088256835938
0.001950979232788086
0.0009751319885253906
0.001950979232788086
0.0009753704071044922
0.0019497871398925781
0.0009760856628417969
0.0019502639770507812
0.0009756088256835938
0.001950979232788086
0.0009753704071044922
0.0009758472442626953
0.001950979232788086
0.0009753704071044922
0.001950979232788086
0.0019507408142089844
0.0019500255584716797
0.0009760856628417969
0.0009760856628417969
0.0019497871398925781
0.0009753704071044922
0.0019507408142089844
0.0010013580322265625
0.001924753189086914
0.0009875297546386719
0.0019507408142089844
0.0019512176513671875
0.0009753704071044922
0.0019378662109375
0.0009927749633789062
0.0009903907775878906
0.0019502639770507812
0.0009756088256835938
0.0019502639770507812
0.0019335746765136719
0.0019505023956298828
0.0009746551513671875
0.0009758472442626953
0.0009903907775878906
0.0019512176513671875
0.0009746551513671875
0.001947641372680664
0.0009658336639404297
0.0019507408142089844
0.0009744167327880859
0.001964569091796875
0.0019369125366210938
0.0009877681732177734
0.001950979232788086
0.0009763240814208984
0.0019512176513671875
0.0009779930114746094
0.0019502639770507812
0.0019342899322509766
0.0009748935699462891
0.0029315948486328125
0.0009710788726806641
0.001964092254638672
0.0019483566284179688
0.0009758472442626953
0.0019502639770507812
0.0019383430480957031
0.0009763240814208984
0.001962423324584961
0.0009756088256835938
0.000988006591796875
0.0019516944885253906
0.0009751319885253906
0.0019371509552001953
0.0019614696502685547
0.0019457340240478516
0.0019459724426269531
0.0009729862213134766
0.000990152359008789
0.0019478797912597656
0.0009751319885253906
0.0019485950469970703
0.0009753704071044922
0.0009784698486328125
0.001951456069946289
0.0009746551513671875
0.0019490718841552734
0.0019526481628417969
0.0009753704071044922
0.0019502639770507812
0.0009758472442626953
0.0019505023956298828
0.0009753704071044922
0.0019500255584716797
0.0009815692901611328
0.0019240379333496094
0.0019505023956298828
0.0009853839874267578
0.005853414535522461
0.007802724838256836
0.001950979232788086
0.0019693374633789062
0.0019326210021972656
0.001967191696166992
0.0009753704071044922
0.0019519329071044922
0.001968860626220703
0.0019526481628417969
0.0009744167327880859
0.0009753704071044922
0.0019698143005371094
0.0009760856628417969
0.0019507408142089844
0.001943349838256836
0.0009753704071044922
0.001951456069946289
0.0009753704071044922
0.0019505023956298828
0.0019505023956298828
0.0009748935699462891
0.0019507408142089844
0.001950979232788086
0.0009753704071044922
0.0009884834289550781
0.0019443035125732422
0.0019571781158447266
0.0009751319885253906
0.0009753704071044922
0.0019538402557373047
0.0009748935699462891
0.001947641372680664
0.0019500255584716797
0.0009756088256835938
0.001941680908203125
0.001950979232788086
0.0019631385803222656
0.0019507408142089844
0.0009748935699462891
0.0019505023956298828
0.0009753704071044922
0.0019562244415283203
0.0019328594207763672
0.0009832382202148438
0.0019562244415283203
0.00194549560546875
0.0019397735595703125
0.0019505023956298828
0.001949310302734375
0.0009877681732177734
0.0009694099426269531
0.0019505023956298828
0.0019478797912597656
0.0009770393371582031
0.001951456069946289
0.0009770393371582031
0.0009741783142089844
0.0019500255584716797
0.000982522964477539
0.0019524097442626953
0.0009756088256835938
0.0019636154174804688
0.001950979232788086
0.0009624958038330078
0.001962900161743164
0.0019385814666748047
0.0019500255584716797
0.0019643306732177734
0.0009629726409912109
0.000988006591796875
0.001951456069946289
0.0009753704071044922
0.0019378662109375
0.001964092254638672
0.0019373893737792969
0.0019502639770507812
0.0009937286376953125
0.0019507408142089844
0.0019614696502685547
0.0019383430480957031
0.0019342899322509766
0.0009894371032714844
0.0019490718841552734
0.0019519329071044922
0.0019500255584716797
0.0009756088256835938
0.0019495487213134766
0.0009760856628417969
0.0009765625
0.0019495487213134766
0.0019383430480957031
0.0019478797912597656
0.0019407272338867188
0.0009877681732177734
0.0019385814666748047
0.001962900161743164
0.0009760856628417969
0.0019497871398925781
0.0009629726409912109
0.001951456069946289
0.001970052719116211
0.0019502639770507812
0.0019478797912597656
0.0009756088256835938
0.0019505023956298828
0.0019507408142089844
0.000989675521850586
0.0029294490814208984
0.002909421920776367
0.002927064895629883
0.0019588470458984375
0.0009753704071044922
0.0019505023956298828
0.0019512176513671875
0.001947641372680664
0.0009753704071044922
0.0019500255584716797
0.001950979232788086
0.0019412040710449219
0.0009875297546386719
0.0019538402557373047
0.0019354820251464844
0.0019686222076416016
0.0019447803497314453
0.0019533634185791016
0.0019359588623046875
0.000985860824584961
0.0019500255584716797
0.0019583702087402344
0.0009684562683105469
0.0019502639770507812
0.0015034675598144531
0.0009753704071044922
0.0019502639770507812
0.001950979232788086
0.0019507408142089844
0.0009756088256835938
0.0029134750366210938
0.001963376998901367
0.0019559860229492188
0.0009799003601074219
0.0019507408142089844
0.0019507408142089844
0.001955270767211914
0.0009708404541015625
0.0019505023956298828
0.0019502639770507812
0.0019414424896240234
0.0019605159759521484
0.0019414424896240234
0.0019507408142089844
0.0019497871398925781
0.0009756088256835938
0.0019505023956298828
0.0019507408142089844
0.0009758472442626953
0.001962900161743164
0.0019378662109375
0.0019636154174804688
0.0009751319885253906
0.0019383430480957031
0.0009756088256835938
0.0019502639770507812
0.001950979232788086
0.0019507408142089844
0.0019598007202148438
0.0009751319885253906
0.000988006591796875
0.0019507408142089844
0.001950979232788086
0.0009748935699462891
0.0009870529174804688
0.001950979232788086
0.0009751319885253906
0.0019545555114746094
0.0019366741180419922
0.001950979232788086
0.001963376998901367
0.0009748935699462891
0.0019507408142089844
0.001950979232788086
0.0009756088256835938
0.0009884834289550781
0.0019497871398925781
0.0019383430480957031
0.0019507408142089844
0.0009493827819824219
0.0009860992431640625
0.0009877681732177734
0.001951456069946289
0.0019500255584716797
0.0009753704071044922
0.0019512176513671875
0.0019373893737792969
0.0019683837890625
0.0019333362579345703
0.001963376998901367
0.0019388198852539062
0.0019505023956298828
0.001955747604370117
0.0009779930114746094
0.0009675025939941406
0.0019505023956298828
0.0019507408142089844
0.0019381046295166016
0.0009877681732177734
0.0019443035125732422
0.001956939697265625
0.001951456069946289
0.0019507408142089844
0.0009744167327880859
0.0009882450103759766
0.0019512176513671875
0.0019505023956298828
0.0009751319885253906
0.0029137134552001953
0.0019605159759521484
0.0019505023956298828
0.0009756088256835938
0.0019538402557373047
0.0019490718841552734
0.0009646415710449219
0.001959085464477539
0.0019505023956298828
0.0009758472442626953
0.0009818077087402344
0.0019359588623046875
0.0029265880584716797
0.0009851455688476562
0.0009870529174804688
0.0019512176513671875
0.0019507408142089844
0.001950979232788086
0.0019519329071044922
0.001949310302734375
0.0019638538360595703
0.001950979232788086
0.0019376277923583984
0.0019500255584716797
0.0019507408142089844
0.0009756088256835938
0.0009746551513671875
0.001965045928955078
0.0009810924530029297
0.001953125
0.001950979232788086
0.0019505023956298828
0.001971006393432617
0.0019431114196777344
0.0019505023956298828
0.0019505023956298828
0.0019505023956298828
0.0009753704071044922
0.0009927749633789062
0.0019469261169433594
0.0009696483612060547
0.0019464492797851562
0.001954317092895508
0.0019643306732177734
0.001962900161743164
0.0019507408142089844
0.0009751319885253906
0.0019507408142089844
0.0019512176513671875
0.0019505023956298828
0.0009756088256835938
0.00098419189453125
0.001943826675415039
0.001955747604370117
0.001971721649169922
0.001924753189086914
0.0019528865814208984
0.0019485950469970703
0.001951456069946289
0.0019495487213134766
0.001581430435180664
0.0019414424896240234
0.0029265880584716797
0.0019512176513671875
0.001950979232788086
0.0029268264770507812
0.0009636878967285156
0.0019567012786865234
0.0019314289093017578
0.001953601837158203
0.000989675521850586
0.0019481182098388672
0.0019505023956298828
0.0009756088256835938
0.0009467601776123047
0.0019636154174804688
0.001950979232788086
0.0019507408142089844
0.0009751319885253906
0.000988006591796875
0.0019507408142089844
0.001950979232788086
0.0019412040710449219
0.0019659996032714844
0.002927064895629883
0.0019342899322509766
0.0019636154174804688
0.0019474029541015625
0.0009758472442626953
0.0009849071502685547
0.0019507408142089844
0.0019502639770507812
0.0019555091857910156
0.0019485950469970703
0.0019485950469970703
0.0009751319885253906
0.0019512176513671875
0.0019500255584716797
0.001950979232788086
0.0019505023956298828
0.0019559860229492188
0.0019507408142089844
0.0019507408142089844
0.0020432472229003906
0.0019600391387939453
0.0009760856628417969
0.0019392967224121094
0.0019598007202148438
0.0019412040710449219
0.001959562301635742
0.001941680908203125
0.0009849071502685547
0.0009846687316894531
0.001950979232788086
0.0019507408142089844
0.0019500255584716797
0.0019505023956298828
0.0009758472442626953
0.0009765625
0.0019495487213134766
0.0019502639770507812
0.0019505023956298828
0.0019526481628417969
0.0019545555114746094
0.0019452571868896484
0.0019507408142089844
0.001950979232788086
0.0019555091857910156
0.0019462108612060547
0.0019402503967285156
0.001949310302734375
0.0019505023956298828
0.0019609928131103516
0.0009751319885253906
0.0019538402557373047
0.0019381046295166016
0.001959562301635742
0.0019507408142089844
0.0019502639770507812
0.0009760856628417969
0.001953601837158203
0.0019505023956298828
0.001924753189086914
0.0019516944885253906
0.0019674301147460938
0.001950979232788086
0.0019333362579345703
0.0009930133819580078
0.004877328872680664
0.0019502639770507812
0.0019674301147460938
0.0019495487213134766
0.0019507408142089844
0.001951456069946289
0.0019502639770507812
0.0019512176513671875
0.0019335746765136719
0.0019683837890625
0.0019490718841552734
0.0029134750366210938
0.0009899139404296875
0.0009751319885253906
0.0009894371032714844
0.0019457340240478516
0.0019409656524658203
0.0019605159759521484
0.0019409656524658203
0.0019507408142089844
0.001961231231689453
0.001951456069946289
0.0019488334655761719
0.001949310302734375
0.0029265880584716797
0.0019512176513671875
0.0019502639770507812
0.0019507408142089844
0.0019562244415283203
0.0009927749633789062
0.0019505023956298828
0.0019638538360595703
0.0019371509552001953
0.001950979232788086
0.0019636154174804688
0.0019507408142089844
0.0019507408142089844
0.0019500255584716797
0.001950979232788086
0.001950979232788086
0.0009751319885253906
0.0019502639770507812
0.002917051315307617
0.0019621849060058594
0.0019359588623046875
0.0019512176513671875
0.001959562301635742
0.0019512176513671875
0.0019550323486328125
0.0019457340240478516
0.0019562244415283203
0.0019452571868896484
0.0029282569885253906
0.001949310302734375
0.0019502639770507812
0.0019412040710449219
0.00196075439453125
0.0019497871398925781
0.0009760856628417969
0.0009663105010986328
0.0019402503967285156
0.001961946487426758
0.001950979232788086
0.001954793930053711
0.0009756088256835938
0.0009660720825195312
0.0009751319885253906
0.0019576549530029297
0.0019512176513671875
0.0019505023956298828
0.001950979232788086
0.0009748935699462891
0.00098419189453125
0.001950979232788086
0.0019562244415283203
0.0019407272338867188
0.001960277557373047
0.0019512176513671875
0.000990152359008789
0.0019502639770507812
0.0019505023956298828
0.0019383430480957031
0.001967906951904297
0.0019521713256835938
0.0019321441650390625
0.0019516944885253906
0.0019505023956298828
0.0019631385803222656
0.0019502639770507812
0.0019631385803222656
0.0019388198852539062
0.0019507408142089844
0.0009868144989013672
0.0009875297546386719
0.0019502639770507812
0.0019507408142089844
0.0019516944885253906
0.0019371509552001953
0.001966238021850586
0.001947641372680664
0.0019505023956298828
0.001950979232788086
0.0019500255584716797
0.0019636154174804688
0.0019505023956298828
0.001951456069946289
0.0019497871398925781
0.0019507408142089844
0.0019385814666748047
0.0019576549530029297
0.0029201507568359375
0.0029349327087402344
0.0019407272338867188
0.0019507408142089844
0.0019505023956298828
0.001950979232788086
0.0019676685333251953
0.001950979232788086
0.0019507408142089844
0.0019505023956298828
0.0019333362579345703
0.0019690990447998047
0.001932382583618164
0.0029392242431640625
0.0019505023956298828
0.0019555091857910156
0.0009751319885253906
0.0009758472442626953
0.0019676685333251953
0.0019507408142089844
0.0019342899322509766
0.0019669532775878906
0.0019335746765136719
0.0019681453704833984
0.0019505023956298828
0.0019533634185791016
0.0019676685333251953
0.0019335746765136719
0.001958608627319336
0.0019500255584716797
0.0019507408142089844
0.001951456069946289
0.0009746551513671875
0.0009672641754150391
0.0019507408142089844
0.0009756088256835938
0.0019631385803222656
0.0019512176513671875
0.0019516944885253906
0.0019500255584716797
0.001950979232788086
0.0019500255584716797
0.0019381046295166016
0.0019376277923583984
0.001961946487426758
0.0019507408142089844
0.0019526481628417969
0.0019364356994628906
0.0019593238830566406
0.0019512176513671875
0.0019502639770507812
0.0019507408142089844
0.001950979232788086
0.0019519329071044922
0.001939535140991211
0.0019609928131103516
0.0009748935699462891
0.0009558200836181641
0.0019655227661132812
0.0019528865814208984
0.001950979232788086
0.0019333362579345703
0.0029273033142089844
0.0019593238830566406
0.0019559860229492188
0.0019507408142089844
0.0019452571868896484
0.001950979232788086
0.0019409656524658203
0.0019598007202148438
0.0019719600677490234
0.0019202232360839844
0.00293731689453125
0.0019505023956298828
0.0019495487213134766
0.0019404888153076172
0.0019605159759521484
0.0019409656524658203
0.001964092254638672
0.0019376277923583984
0.0019731521606445312
0.001950979232788086
0.0019505023956298828
0.001947641372680664
0.000978708267211914
0.0009891986846923828
0.0019507408142089844
0.001950979232788086
0.0019507408142089844
0.0019631385803222656
0.001950979232788086
0.0019505023956298828
0.001951456069946289
0.0019502639770507812
0.0019388198852539062
0.0019481182098388672
0.0019457340240478516
0.0019540786743164062
0.0019500255584716797
0.0019533634185791016
0.002912759780883789
0.001958608627319336
0.0019497871398925781
0.0019609928131103516
0.0019404888153076172
0.0019507408142089844
0.0019681453704833984
0.001950979232788086
0.0019464492797851562
0.0019502639770507812
0.0019500255584716797
0.001951456069946289
0.001935720443725586
0.0019507408142089844
0.0019502639770507812
0.0019507408142089844
0.0019505023956298828
0.0019636154174804688
0.001954793930053711
0.0019452571868896484
0.0029153823852539062
0.0019500255584716797
0.0019648075103759766
0.0019495487213134766
0.0019505023956298828
0.001953125
0.0019605159759521484
0.001955747604370117
0.00196075439453125
0.0019521713256835938
0.0019488334655761719
0.001950979232788086
0.0019507408142089844
0.001951456069946289
0.0019402503967285156
0.0019655227661132812
0.0019457340240478516
0.0019505023956298828
0.0019512176513671875
0.0019555091857910156
0.0019505023956298828
0.0009868144989013672
0.001943349838256836
0.0019712448120117188
0.0019428730010986328
0.0019507408142089844
0.0009887218475341797
0.0009877681732177734
0.001954317092895508
0.0009751319885253906
0.00194549560546875
0.0019381046295166016
0.0019643306732177734
0.001964092254638672
0.0019505023956298828
0.0009756088256835938
0.0009777545928955078
0.0019497871398925781
0.001951456069946289
0.0029249191284179688
0.001941680908203125
0.0019538402557373047
0.0019507408142089844
0.0019502639770507812
0.0019512176513671875
0.0019505023956298828
0.0019512176513671875
0.0019636154174804688
0.0019550323486328125
0.001950979232788086
0.0019457340240478516
0.001950979232788086
0.0019507408142089844
0.0019507408142089844
0.0019381046295166016
0.0019683837890625
0.0019507408142089844
0.0019426345825195312
0.0019512176513671875
0.0019507408142089844
0.0019505023956298828
0.0019507408142089844
0.0019409656524658203
0.0019674301147460938
0.0019502639770507812
0.0019505023956298828
0.0019521713256835938
0.0019352436065673828
0.001967906951904297
0.0019328594207763672
0.0019524097442626953
0.001949310302734375
0.0029256343841552734
0.0019638538360595703
0.0019505023956298828
0.0019550323486328125
0.001951456069946289
0.001950979232788086
0.0019505023956298828
0.0019507408142089844
0.0019533634185791016
0.0009744167327880859
0.0019330978393554688
0.0019631385803222656
0.0019376277923583984
0.001950979232788086
0.002939939498901367
0.0019497871398925781
0.0019505023956298828
0.0019376277923583984
0.001964092254638672
0.0019507408142089844
0.0019481182098388672
0.001951456069946289
0.0019652843475341797
0.0019483566284179688
0.001950979232788086
0.0019505023956298828
0.0019378662109375
0.0029387474060058594
0.00196075439453125
0.0029036998748779297
0.0019507408142089844
0.0019638538360595703
0.0019381046295166016
0.0019505023956298828
0.0019638538360595703
0.0019502639770507812
0.0009884834289550781
0.0009756088256835938
0.0019507408142089844
0.001954317092895508
0.001934051513671875
0.0019588470458984375
0.0019505023956298828
0.0019686222076416016
0.001967191696166992
0.0019328594207763672
0.0019505023956298828
0.001963376998901367
0.0019507408142089844
0.001950979232788086
0.0019505023956298828
0.001950979232788086
0.0019378662109375
0.0019502639770507812
0.0019502639770507812
0.001970052719116211
0.0019485950469970703
0.001950979232788086
0.002926349639892578
0.0019505023956298828
0.0019526481628417969
0.0019497871398925781
0.0019681453704833984
0.00292205810546875
0.0019505023956298828
0.0029141902923583984
0.001962423324584961
0.0019512176513671875
0.0019505023956298828
0.0019500255584716797
0.0019505023956298828
0.0019397735595703125
0.001949310302734375
0.0009829998016357422
0.001968860626220703
0.0019459724426269531
0.0019500255584716797
0.001950979232788086
0.0019507408142089844
0.0019502639770507812
0.0019631385803222656
0.002913236618041992
0.0019507408142089844
0.001964569091796875
0.001956462860107422
0.0019507408142089844
0.001950979232788086
0.0019376277923583984
0.0019752979278564453
0.0019385814666748047
0.0019500255584716797
0.001955747604370117
0.001950979232788086
0.0019457340240478516
0.0019507408142089844
0.001950979232788086
0.002913236618041992
0.0019676685333251953
0.001962900161743164
0.0019507408142089844
0.0019428730010986328
0.0019421577453613281
0.001981973648071289
0.0028946399688720703
0.0029268264770507812
0.0019631385803222656
0.0019505023956298828
0.0019502639770507812
0.0019507408142089844
0.0029134750366210938
0.0019631385803222656
0.002917051315307617
0.0019598007202148438
0.0029261112213134766
0.0019505023956298828
0.0019478797912597656
0.001951456069946289
0.001950979232788086
0.0019638538360595703
0.001935720443725586
0.0019507408142089844
0.0019507408142089844
0.002926349639892578
0.001951456069946289
0.0019497871398925781
0.002934694290161133
0.003901243209838867
0.001950979232788086
0.001950979232788086
0.0019507408142089844
0.0019693374633789062
0.0019507408142089844
0.0019507408142089844
0.0019638538360595703
0.0019497871398925781
0.0029261112213134766
0.0019388198852539062
0.001962900161743164
0.001950979232788086
0.0019497871398925781
0.0019385814666748047
0.0019638538360595703
0.0019636154174804688
0.0019385814666748047
0.001966238021850586
0.002926349639892578
0.0019507408142089844
0.0019505023956298828
0.0019426345825195312
0.0019373893737792969
0.0019519329071044922
0.0019495487213134766
0.0029439926147460938
0.0019459724426269531
0.001950979232788086
0.0019502639770507812
0.0019502639770507812
0.0019497871398925781
0.001963376998901367
0.0019507408142089844
0.001950979232788086
0.0019383430480957031
0.002926349639892578
0.0019502639770507812
0.0019483566284179688
0.001950979232788086
0.0019502639770507812
0.001950979232788086
0.002917051315307617
0.0029218196868896484
0.001950979232788086
0.0019626617431640625
0.0029129981994628906
0.001970052719116211
0.0019345283508300781
0.0019681453704833984
0.0019459724426269531
0.0019502639770507812
0.0029146671295166016
0.0019626617431640625
0.0019505023956298828
0.0019512176513671875
0.001947641372680664
0.001950979232788086
0.001962423324584961
0.0019381046295166016
0.0019502639770507812
0.001964092254638672
0.0029129981994628906
0.0019507408142089844
0.002926349639892578
0.0019502639770507812
0.0019507408142089844
0.0019507408142089844
0.0019502639770507812
0.0019507408142089844
0.001970529556274414
0.001953125
0.0019507408142089844
0.0029435157775878906
0.0019578933715820312
0.0019469261169433594
0.001954317092895508
0.0029134750366210938
0.0019507408142089844
0.001941680908203125
0.0019505023956298828
0.002938985824584961
0.0019516944885253906
0.0019497871398925781
0.0019638538360595703
0.0019507408142089844
0.0019512176513671875
0.0019550323486328125
0.002920866012573242
0.001955270767211914
0.0019519329071044922
0.001962900161743164
0.0019559860229492188
0.0019507408142089844
0.0029087066650390625
0.0019502639770507812
0.0019507408142089844
0.0019507408142089844
0.0019512176513671875
0.002945423126220703
0.0019457340240478516
0.001961946487426758
0.001950979232788086
0.0019512176513671875
0.0019505023956298828
0.0019381046295166016
0.0019376277923583984
0.0019674301147460938
0.0019681453704833984
0.0019505023956298828
0.0019507408142089844
0.001950979232788086
0.0019502639770507812
0.0019512176513671875
0.0019459724426269531
0.0029306411743164062
0.0019335746765136719
0.001962900161743164
0.0019512176513671875
0.0029137134552001953
0.0019631385803222656
0.0019636154174804688
0.0019381046295166016
0.002926349639892578
0.0019502639770507812
0.0029261112213134766
0.0019507408142089844
0.0019505023956298828
0.0019631385803222656
0.0029265880584716797
0.0019502639770507812
0.001950979232788086
0.0019507408142089844
0.0019528865814208984
0.001962900161743164
0.001955270767211914
0.0019478797912597656
0.0019674301147460938
0.0019507408142089844
0.001950979232788086
0.0019516944885253906
0.0029256343841552734
0.0019507408142089844
0.0019495487213134766
0.0019507408142089844
0.0019507408142089844
0.0019507408142089844
0.002925872802734375
0.0019681453704833984
0.0019333362579345703
0.001963376998901367
0.001950979232788086
0.0019383430480957031
0.001962900161743164
0.001947641372680664
0.0019681453704833984
0.001950979232788086
0.0019507408142089844
0.0019345283508300781
0.0029447078704833984
0.0019507408142089844
0.0019488334655761719
0.002908468246459961
0.0019686222076416016
0.0019376277923583984
0.0019631385803222656
0.0019507408142089844
0.00286102294921875
0.0019693374633789062
0.0029268264770507812
0.0019490718841552734
0.0019335746765136719
0.0019502639770507812
0.0019500255584716797
0.001954793930053711
0.001949310302734375
0.0019638538360595703
0.0019500255584716797
0.0019512176513671875
0.0019409656524658203
0.0019381046295166016
0.0019507408142089844
0.0019676685333251953
0.0019338130950927734
0.002943754196166992
0.0019505023956298828
0.0019333362579345703
0.0029273033142089844
0.0019683837890625
0.0019474029541015625
0.0019626617431640625
0.0019505023956298828
0.0019512176513671875
0.002913236618041992
0.0019505023956298828
0.002926349639892578
0.0029451847076416016
0.001947641372680664
0.0019445419311523438
0.0019638538360595703
0.0019571781158447266
0.001949310302734375
0.0019526481628417969
0.0019505023956298828
0.0019502639770507812
0.001950979232788086
0.0029261112213134766
0.001950979232788086
0.0019457340240478516
0.0029141902923583984
0.0021076202392578125
0.0019683837890625
0.002908468246459961
0.0019507408142089844
0.0019502639770507812
0.0019502639770507812
0.0019507408142089844
0.002939462661743164
0.0019495487213134766
0.0019507408142089844
0.002926349639892578
0.001950979232788086
0.0019505023956298828
0.001962423324584961
0.001958608627319336
0.0019505023956298828
0.0019502639770507812
0.0029163360595703125
0.0029306411743164062
0.001959085464477539
0.002914905548095703
0.0019526481628417969
0.0019631385803222656
0.001950979232788086
0.0019576549530029297
0.0019507408142089844
0.001953125
0.001947641372680664
0.001909494400024414
0.0019252300262451172
0.0019385814666748047
0.0019495487213134766
0.0019626617431640625
0.002931833267211914
0.0029077529907226562
0.0029265880584716797
0.0019686222076416016
0.0019478797912597656
0.0019485950469970703
0.0019381046295166016
0.0019497871398925781
0.0019626617431640625
0.0019507408142089844
0.0019681453704833984
0.0029265880584716797
0.0019404888153076172
0.0019631385803222656
0.0019505023956298828
0.0019555091857910156
0.0019562244415283203
0.002907991409301758
0.0029387474060058594
0.0019378662109375
0.0019502639770507812
0.0019435882568359375
0.0019268989562988281
0.001964092254638672
0.001955747604370117
0.002907991409301758
0.002939462661743164
0.0019507408142089844
0.0019495487213134766
0.002913951873779297
0.002938508987426758
0.0019533634185791016
0.0019497871398925781
0.002911806106567383
0.0029268264770507812
0.002925395965576172
0.0019636154174804688
0.0019378662109375
0.003899812698364258
0.0019502639770507812
0.002925872802734375
0.0029277801513671875
0.002924680709838867
0.0019502639770507812
0.001950979232788086
0.0019512176513671875
0.0019500255584716797
0.0019507408142089844
0.0019507408142089844
0.0019507408142089844
0.0029265880584716797
0.0019507408142089844
0.0029261112213134766
0.0019507408142089844
0.0029273033142089844
0.0029249191284179688
0.0019502639770507812
0.001950979232788086
0.0019683837890625
0.0019330978393554688
0.002926349639892578
0.002926349639892578
0.0029261112213134766
0.001950979232788086
0.0029430389404296875
0.0019507408142089844
0.0029098987579345703
0.0019490718841552734
0.0029435157775878906
0.0019338130950927734
0.0029261112213134766
0.0019681453704833984
0.002925872802734375
0.001950979232788086
0.001950979232788086
0.0029077529907226562
0.0019702911376953125
0.002926349639892578
0.0019507408142089844
0.002924203872680664
0.0019507408142089844
0.001950979232788086
0.0019516944885253906
0.0029251575469970703
0.0019502639770507812
0.0019507408142089844
0.002926349639892578
0.0019330978393554688
0.0019326210021972656
0.0019693374633789062
0.0019698143005371094
0.002925872802734375
0.0019485950469970703
0.0019512176513671875
0.0029261112213134766
0.0019500255584716797
0.0019512176513671875
0.0029251575469970703
0.001950979232788086
0.0019516944885253906
0.0019426345825195312
0.0019330978393554688
0.0029256343841552734
0.001950979232788086
0.0019507408142089844
0.0019505023956298828
0.001968860626220703
0.002907991409301758
0.0029473304748535156
0.002905130386352539
0.0019505023956298828
0.0019631385803222656
0.0019507408142089844
0.0029332637786865234
0.002920866012573242
0.0019397735595703125
0.002922534942626953
0.0029358863830566406
0.0019538402557373047
0.002918720245361328
0.001958608627319336
0.0019497871398925781
0.001959085464477539
0.0019502639770507812
0.001955270767211914
0.0029268264770507812
0.0019502639770507812
0.0019335746765136719
0.002938985824584961
0.0019376277923583984
0.0029265880584716797
0.0019636154174804688
0.0029218196868896484
0.0019421577453613281
0.0029435157775878906
0.0019326210021972656
0.002926349639892578
0.0029261112213134766
0.0019507408142089844
0.002926349639892578
0.001969575881958008
0.0019505023956298828
0.0019488334655761719
0.0019626617431640625
0.0019507408142089844
0.0019507408142089844
0.0019505023956298828
0.0029261112213134766
0.0019502639770507812
0.0019330978393554688
0.002926349639892578
0.0019698143005371094
0.0019440650939941406
0.0019502639770507812
0.001957416534423828
0.0019516944885253906
0.0029325485229492188
0.0019483566284179688
0.0019507408142089844
0.00194549560546875
0.002925395965576172
0.001934051513671875
0.001970529556274414
0.0029251575469970703
0.0019495487213134766
0.0029211044311523438
0.0019500255584716797
0.0019507408142089844
0.002913951873779297
0.002939939498901367
0.0019459724426269531
0.001953125
0.0019540786743164062
0.001954793930053711
0.0029091835021972656
0.0019507408142089844
0.002925872802734375
0.0019681453704833984
0.0029206275939941406
0.0029342174530029297
0.0019490718841552734
0.0019683837890625
0.0019502639770507812
0.0029082298278808594
0.001963376998901367
0.0029261112213134766
0.0019507408142089844
0.0029134750366210938
0.0019631385803222656
0.0019631385803222656
0.0029125213623046875
0.0019505023956298828
0.002925872802734375
0.001950979232788086
0.0029306411743164062
0.002921581268310547
0.002927064895629883
0.0019621849060058594
0.0029134750366210938
0.001964092254638672
0.002930879592895508
0.0029153823852539062
0.001943349838256836
0.0019495487213134766
0.002927541732788086
0.002924203872680664
0.001960277557373047
0.002929210662841797
0.0019507408142089844
0.0019381046295166016
0.001963376998901367
0.0019381046295166016
0.001950979232788086
0.0029256343841552734
0.0019507408142089844
0.0029265880584716797
0.0019507408142089844
0.0029261112213134766
0.0019500255584716797
0.0019524097442626953
0.0029404163360595703
0.0029256343841552734
0.0019521713256835938
0.002923727035522461
0.0019512176513671875
0.002908945083618164
0.001950979232788086
0.0019686222076416016
0.0029087066650390625
0.0029387474060058594
0.0019507408142089844
0.0019383430480957031
0.0029380321502685547
0.0019512176513671875
0.0029256343841552734
0.0019528865814208984
0.0019507408142089844
0.0029261112213134766
0.0029439926147460938
0.002920866012573242
0.0019507408142089844
0.0019507408142089844
0.0019497871398925781
0.0019562244415283203
0.0029251575469970703
0.0019333362579345703
0.002927064895629883
0.0019505023956298828
0.0029125213623046875
0.0019638538360595703
0.0029134750366210938
0.002938985824584961
0.002927064895629883
0.002924203872680664
0.001950979232788086
0.002913236618041992
0.0019507408142089844
0.002925872802734375
0.001950979232788086
0.0029129981994628906
0.0029268264770507812
0.0039017200469970703
0.0029196739196777344
0.0029315948486328125
0.001950979232788086
0.0029261112213134766
0.0019507408142089844
0.0029256343841552734
0.0019512176513671875
0.002913236618041992
0.002943277359008789
0.0029091835021972656
0.002935647964477539
0.0029256343841552734
0.0029163360595703125
0.0019507408142089844
0.002925872802734375
0.0019512176513671875
0.002925872802734375
0.0019507408142089844
0.0029387474060058594
0.001951456069946289
0.0029251575469970703
0.001950979232788086
0.0029282569885253906
0.002926349639892578
0.002913951873779297
0.002938508987426758
0.0029129981994628906
0.001943826675415039
0.002925395965576172
0.001963376998901367
0.0019459724426269531
0.0019526481628417969
0.0019505023956298828
0.0029404163360595703
0.0029120445251464844
0.0019505023956298828
0.002925872802734375
0.0019524097442626953
0.0019512176513671875
0.002925872802734375
0.0029265880584716797
0.0029392242431640625
0.002924680709838867
0.0019478797912597656
0.0029299259185791016
0.0019497871398925781
0.002925872802734375
0.0029134750366210938
0.002926349639892578
0.0019502639770507812
0.0019469261169433594
0.0029239654541015625
0.0019505023956298828
0.0019507408142089844
0.0019235610961914062
0.002913236618041992
0.0029268264770507812
0.002925872802734375
0.0029387474060058594
0.0029282569885253906
0.002911090850830078
0.00293731689453125
0.0029244422912597656
0.0019507408142089844
0.0019512176513671875
0.0019507408142089844
0.0019373893737792969
0.0029332637786865234
0.001955747604370117
0.0029184818267822266
0.002926349639892578
0.0019505023956298828
0.0029256343841552734
0.001950979232788086
0.002926349639892578
0.0019507408142089844
0.002916574478149414
0.001954793930053711
0.001959562301635742
0.0029261112213134766
0.002908468246459961
0.0029265880584716797
0.0029256343841552734
0.0019631385803222656
0.001950979232788086
0.002925872802734375
0.0029134750366210938
0.0019502639770507812
0.002926349639892578
0.0019636154174804688
0.0029134750366210938
0.0019505023956298828
0.0019507408142089844
0.0029261112213134766
0.0019502639770507812
0.0029265880584716797
0.0019507408142089844
0.0029261112213134766
0.002927541732788086
0.0029249191284179688
0.0029261112213134766
0.0019502639770507812
0.002925872802734375
0.0029268264770507812
0.0019507408142089844
0.001950979232788086
0.002928018569946289
0.002936840057373047
0.001953125
0.002938508987426758
0.0019507408142089844
0.0029268264770507812
0.0029256343841552734
0.0038886070251464844
0.0019502639770507812
0.002926349639892578
0.002926349639892578
0.002925872802734375
0.0029265880584716797
0.0029256343841552734
0.0029141902923583984
0.0029273033142089844
0.0029218196868896484
0.001963376998901367
0.002926349639892578
0.002913236618041992
0.0019507408142089844
0.002925872802734375
0.001950979232788086
0.0019655227661132812
0.0019505023956298828
0.0029261112213134766
0.0029256343841552734
0.002921581268310547
0.0029163360595703125
0.0029456615447998047
0.0019338130950927734
0.0019507408142089844
0.002926349639892578
0.001950979232788086
0.002913951873779297
0.0019669532775878906
0.0029213428497314453
0.0019512176513671875
0.001962423324584961
0.0029261112213134766
0.002913951873779297
0.0029408931732177734
0.002910614013671875
0.001963376998901367
0.002926349639892578
0.0019507408142089844
0.0019502639770507812
0.0019392967224121094
0.0029256343841552734
0.0029447078704833984
0.0029075145721435547
0.0019505023956298828
0.0029256343841552734
0.001950979232788086
0.0029387474060058594
0.002925872802734375
0.0029144287109375
0.0029382705688476562
0.0019500255584716797
0.002927541732788086
0.0029125213623046875
0.0019567012786865234
0.003884553909301758
0.0019636154174804688
0.0019505023956298828
0.0029261112213134766
0.0019512176513671875
0.002925872802734375
0.0029304027557373047
0.0019507408142089844
0.002908945083618164
0.0029261112213134766
0.002939939498901367
0.0029249191284179688
0.0029256343841552734
0.0029261112213134766
0.001951456069946289
0.0029249191284179688
0.0029137134552001953
0.0019683837890625
0.002925395965576172
0.0019507408142089844
0.0019686222076416016
0.0029184818267822266
0.002928495407104492
0.0029134750366210938
0.002926349639892578
0.0019505023956298828
0.002924680709838867
0.002926349639892578
0.0019505023956298828
0.0029268264770507812
0.0029380321502685547
0.0029137134552001953
0.0029439926147460938
0.002908468246459961
0.002938985824584961
0.0029251575469970703
0.0029261112213134766
0.0019402503967285156
0.002941131591796875
0.0019512176513671875
0.0029261112213134766
0.0029211044311523438
0.002925872802734375
0.002943277359008789
0.001950979232788086
0.002920866012573242
0.0029287338256835938
0.0029113292694091797
0.002926349639892578
0.0029397010803222656
0.001949310302734375
0.0029332637786865234
0.0019328594207763672
0.001951456069946289
0.00391387939453125
0.0029256343841552734
0.0019516944885253906
0.001962423324584961
0.0029261112213134766
0.001962900161743164
0.0029163360595703125
0.002926349639892578
0.0019631385803222656
0.002913951873779297
0.002925872802734375
0.0029256343841552734
0.0029332637786865234
0.0029189586639404297
0.0029268264770507812
0.0029261112213134766
0.0029249191284179688
0.002925872802734375
0.001950979232788086
0.0029261112213134766
0.002925872802734375
0.0019507408142089844
0.002926349639892578
0.002938508987426758
0.001950979232788086
0.002913236618041992
0.002936124801635742
0.0029256343841552734
0.0029256343841552734
0.0019507408142089844
0.0029261112213134766
0.0019423961639404297
0.0019464492797851562
0.0039052963256835938
0.002926349639892578
0.0029103755950927734
0.002934694290161133
0.0019516944885253906
0.002925395965576172
0.003911018371582031
0.002925872802734375
0.0029256343841552734
0.0019512176513671875
0.0029261112213134766
0.002931833267211914
0.002920389175415039
0.0029211044311523438
0.002931833267211914
0.002924680709838867
0.002927064895629883
0.0019507408142089844
0.0029282569885253906
0.0029306411743164062
0.0019505023956298828
0.002926349639892578
0.0029087066650390625
0.0019507408142089844
0.0019500255584716797
0.0029435157775878906
0.0029261112213134766
0.0029211044311523438
0.002924203872680664
0.0029151439666748047
0.002938985824584961
0.0019507408142089844
0.002927541732788086
0.002924680709838867
0.0019550323486328125
0.002928495407104492
0.0019216537475585938
0.002942800521850586
0.002921581268310547
0.0019512176513671875
0.002930879592895508
0.002908945083618164
0.002938508987426758
0.0019521713256835938
0.0029282569885253906
0.0029354095458984375
0.002918243408203125
0.002916574478149414
0.0019648075103759766
0.002923727035522461
0.002927064895629883
0.002925395965576172
0.0019505023956298828
0.0029268264770507812
0.0019500255584716797
0.003907442092895508
0.001949310302734375
0.001962900161743164
0.002925872802734375
0.0019512176513671875
0.002925395965576172
0.0029311180114746094
0.002928018569946289
0.0029273033142089844
0.0029222965240478516
0.0029265880584716797
0.0029222965240478516
0.002913236618041992
0.002927064895629883
0.0029413700103759766
0.0029265880584716797
0.0019505023956298828
0.0029261112213134766
0.0029261112213134766
0.0019457340240478516
0.0019512176513671875
0.0019404888153076172
0.0029261112213134766
0.002930879592895508
0.00292205810546875
0.0029273033142089844
0.004875898361206055
0.0019643306732177734
0.0019621849060058594
0.0029256343841552734
0.0019512176513671875
0.002915620803833008
0.0039010047912597656
0.003908634185791016
0.002918243408203125
0.0029256343841552734
0.0029261112213134766
0.0029261112213134766
0.0039017200469970703
0.0029392242431640625
0.0029251575469970703
0.002923250198364258
0.0019505023956298828
0.002897024154663086
0.00390934944152832
0.003893613815307617
0.003902435302734375
0.004876613616943359
0.0039005279541015625
0.0029261112213134766
0.002926349639892578
0.002925872802734375
0.0029261112213134766
0.002926349639892578
0.0038225650787353516
0.003903627395629883
0.002924203872680664
0.002925872802734375
0.0029261112213134766
0.0029261112213134766
0.0029268264770507812
0.002925395965576172
0.0019507408142089844
0.0029265880584716797
0.0029256343841552734
0.0019497871398925781
0.003901243209838867
0.003904581069946289
0.002923727035522461
0.0029251575469970703
0.0029265880584716797
0.0039014816284179688
0.002925872802734375
0.002918720245361328
0.0029213428497314453
0.002926349639892578
0.002925395965576172
0.0019652843475341797
0.0039010047912597656
0.002918720245361328
0.0029387474060058594
0.002931356430053711
0.0029077529907226562
0.0029439926147460938
0.002928495407104492
0.002906322479248047
0.0019505023956298828
0.0029256343841552734
0.0029256343841552734
0.002926349639892578
0.0029261112213134766
0.0029261112213134766
0.0029256343841552734
0.002926349639892578
0.0029397010803222656
0.0038874149322509766
0.0019636154174804688
0.0019376277923583984
0.0029261112213134766
0.0029382705688476562
0.002930879592895508
0.002926349639892578
0.0029430389404296875
0.002926349639892578
0.0029277801513671875
0.0029196739196777344
0.002925872802734375
0.0029251575469970703
0.0019507408142089844
0.003043651580810547
0.0019507408142089844
0.0019502639770507812
0.0029213428497314453
0.0029268264770507812
0.0019500255584716797
0.002913236618041992
0.0029261112213134766
0.002926349639892578
0.0029463768005371094
0.002918720245361328
0.002927541732788086
0.0039060115814208984
0.002925872802734375
0.002945423126220703
0.0029256343841552734
0.002924203872680664
0.001950979232788086
0.0019669532775878906
0.0029265880584716797
0.0029082298278808594
0.0039017200469970703
0.002938508987426758
0.0029256343841552734
0.0019507408142089844
0.0029261112213134766
0.002925872802734375
0.0029304027557373047
0.002909421920776367
0.002945423126220703
0.002923727035522461
0.0019512176513671875
0.0029268264770507812
0.002925872802734375
0.0029265880584716797
0.0029382705688476562
0.002926349639892578
0.0029304027557373047
0.0019507408142089844
0.0019669532775878906
0.002926349639892578
0.002925872802734375
0.002926349639892578
0.0019505023956298828
0.002926349639892578
0.0019502639770507812
0.0029261112213134766
0.0019507408142089844
0.0019676685333251953
0.0029206275939941406
0.0029344558715820312
0.0029251575469970703
0.002923727035522461
0.0029261112213134766
0.0029265880584716797
0.0029211044311523438
0.0029273033142089844
0.0019488334655761719
0.0029261112213134766
0.0019457340240478516
0.001958131790161133
0.0019426345825195312
0.002926349639892578
0.0029256343841552734
0.0029268264770507812
0.002925872802734375
0.0019505023956298828
0.0019636154174804688
0.0038886070251464844
0.0029392242431640625
0.0029325485229492188
0.0029332637786865234
0.002925395965576172
0.002926349639892578
0.002938508987426758
0.002913236618041992
0.002927064895629883
0.0019502639770507812
0.0029265880584716797
0.002925395965576172
0.002925872802734375
0.0029256343841552734
0.0029265880584716797
0.0029282569885253906
0.002923727035522461
0.002925872802734375
0.0019507408142089844
0.002925872802734375
0.002926349639892578
0.002944469451904297
0.0029251575469970703
0.0029430389404296875
0.002923250198364258
0.0029261112213134766
0.0029287338256835938
0.002908945083618164
0.0029273033142089844
0.003917217254638672
0.0029234886169433594
0.0029222965240478516
0.0019545555114746094
0.002931356430053711
0.002911090850830078
0.0029256343841552734
0.002941131591796875
0.002911090850830078
0.002947092056274414
0.0029048919677734375
0.0029439926147460938
0.002926349639892578
0.001955747604370117
0.0038945674896240234
0.0029163360595703125
0.0029251575469970703
0.0029256343841552734
0.0019521713256835938
0.0029387474060058594
0.002925872802734375
0.002930879592895508
0.0029277801513671875
0.002923727035522461
0.0029163360595703125
0.002926349639892578
0.0029261112213134766
0.0019500255584716797
0.0029261112213134766
0.003906726837158203
0.003936767578125
0.0029244422912597656
0.0029282569885253906
0.002938985824584961
0.0029387474060058594
0.002925872802734375
0.0029256343841552734
0.0019378662109375
0.0019397735595703125
0.002925872802734375
0.002943277359008789
0.0019507408142089844
0.0019407272338867188
0.002926349639892578
0.002925872802734375
0.0029261112213134766
0.002926349639892578
0.002926349639892578
0.002938508987426758
0.0029261112213134766
0.002926349639892578
0.001950979232788086
0.0029256343841552734
0.0029172897338867188
0.002926349639892578
0.0039141178131103516
0.0029249191284179688
0.002922534942626953
0.0019507408142089844
0.002926349639892578
0.0029387474060058594
0.002925872802734375
0.0029430389404296875
0.0029211044311523438
0.0038940906524658203
0.002939939498901367
0.002925395965576172
0.0019526481628417969
0.0029261112213134766
0.002925872802734375
0.002939939498901367
0.002925872802734375
0.0029251575469970703
0.0029180049896240234
0.002930879592895508
0.002920866012573242
0.0039055347442626953
0.002915620803833008
0.0019519329071044922
0.002926349639892578
0.002925872802734375
0.002926349639892578
0.002925872802734375
0.0029265880584716797
0.0029261112213134766
0.0019507408142089844
0.0019512176513671875
0.0019474029541015625
0.0029265880584716797
0.002925872802734375
0.0029287338256835938
0.0029227733612060547
0.0029265880584716797
0.0029256343841552734
0.002926349639892578
0.002928018569946289
0.0029256343841552734
0.0029261112213134766
0.002925395965576172
0.001965761184692383
0.002927064895629883
0.0029244422912597656
0.003888845443725586
0.002926349639892578
0.0029430389404296875
0.0029261112213134766
0.002925872802734375
0.002909421920776367
0.0039136409759521484
0.002913951873779297
0.0019252300262451172
0.002925872802734375
0.002926349639892578
0.0029413700103759766
0.0029234886169433594
0.002925872802734375
0.00293731689453125
0.002926349639892578
0.001951456069946289
0.0019516944885253906
0.0019505023956298828
0.002942323684692383
0.0029244422912597656
0.0029115676879882812
0.0029256343841552734
0.002943754196166992
0.0038881301879882812
0.0029227733612060547
0.002937793731689453
0.002925872802734375
0.0029261112213134766
0.002926349639892578
0.002925872802734375
0.002925872802734375
0.0029256343841552734
0.002928018569946289
0.002924680709838867
0.0029256343841552734
0.002925395965576172
0.003889322280883789
0.0039141178131103516
0.002912759780883789
0.002925872802734375
0.002926349639892578
0.002925872802734375
0.002938508987426758
0.002913951873779297
0.0029261112213134766
0.003914594650268555
0.002913951873779297
0.002924680709838867
0.0029261112213134766
0.0029261112213134766
0.0029282569885253906
0.003900289535522461
0.0029249191284179688
0.0019521713256835938
0.0019638538360595703
0.0038890838623046875
0.002925395965576172
0.0039021968841552734
0.0029296875
0.003897428512573242
0.0019507408142089844
0.0019507408142089844
0.0039017200469970703
0.0029256343841552734
0.0029268264770507812
0.002926349639892578
0.002926349639892578
0.002921581268310547
0.002925395965576172
0.0029261112213134766
0.0029265880584716797
0.0029265880584716797
0.002913236618041992
0.0028924942016601562
0.002938985824584961
0.0038890838623046875
0.0029408931732177734
0.0029234886169433594
0.0029273033142089844
0.0029251575469970703
0.003888368606567383
0.002926349639892578
0.0029311180114746094
0.0029211044311523438
0.003901958465576172
0.002926349639892578
0.0029251575469970703
0.001963376998901367
0.0029137134552001953
0.0029230117797851562
0.00390625
0.002928018569946289
0.0029082298278808594
0.002925872802734375
0.0029442310333251953
0.0029082298278808594
0.003914356231689453
0.002928018569946289
0.002912282943725586
0.002925395965576172
0.0029268264770507812
0.0029265880584716797
0.002926349639892578
0.002924680709838867
0.002925395965576172
0.002925872802734375
0.0019505023956298828
0.0029261112213134766
0.0029261112213134766
0.002929210662841797
0.002474069595336914
0.0038797855377197266
0.002938985824584961
0.002925872802734375
0.0038895606994628906
0.0038971900939941406
0.0029256343841552734
0.002926349639892578
0.0029261112213134766
0.0029261112213134766
0.002926349639892578
0.003915071487426758
0.0019540786743164062
0.0029075145721435547
0.001965045928955078
0.001963376998901367
0.0019545555114746094
0.0019617080688476562
0.0029265880584716797
0.002938985824584961
0.0019524097442626953
0.003935575485229492
0.0028922557830810547
0.0029382705688476562
0.0029306411743164062
0.0029418468475341797
0.0029213428497314453
0.002926349639892578
0.001950979232788086
0.0029277801513671875
0.002941131591796875
0.0039136409759521484
0.0029230117797851562
0.002917051315307617
0.0029354095458984375
0.0029294490814208984
0.0029251575469970703
0.002928018569946289
0.0029113292694091797
0.002907991409301758
0.0029430389404296875
0.0038967132568359375
0.0029273033142089844
0.002912282943725586
0.002938985824584961
0.0029129981994628906
0.002943754196166992
0.0029261112213134766
0.0039010047912597656
0.002926349639892578
0.0029261112213134766
0.0019423961639404297
0.0019507408142089844
0.002925872802734375
0.003928422927856445
0.0029006004333496094
0.0029077529907226562
0.00293731689453125
0.002925872802734375
0.0029180049896240234
0.0029344558715820312
0.0029256343841552734
0.0029206275939941406
0.0039014816284179688
0.002922534942626953
0.0029306411743164062
0.0029249191284179688
0.002930164337158203
0.0029261112213134766
0.0029087066650390625
0.0029268264770507812
0.0029430389404296875
0.0019447803497314453
0.0029256343841552734
0.002927541732788086
0.002939939498901367
0.003900289535522461
0.0039038658142089844
0.002929210662841797
0.0038836002349853516
0.003902912139892578
0.002924203872680664
0.002925872802734375
0.0029261112213134766
0.0029261112213134766
0.0039017200469970703
0.0029256343841552734
0.0029382705688476562
0.002925872802734375
0.0029141902923583984
0.003900766372680664
0.0029435157775878906
0.0038847923278808594
0.0029397010803222656
0.0029244422912597656
0.0029387474060058594
0.002912282943725586
0.0029387474060058594
0.0029249191284179688
0.002926349639892578
0.0029380321502685547
0.0029261112213134766
0.0029256343841552734
0.0029261112213134766
0.0029311180114746094
0.0038971900939941406
0.002925872802734375
0.002925395965576172
0.002927541732788086
0.0029120445251464844
0.002930164337158203
0.002918243408203125
0.0038924217224121094
0.002928495407104492
0.002937793731689453
0.0019495487213134766
0.002928018569946289
0.0029261112213134766
0.0029268264770507812
0.002930164337158203
0.0029213428497314453
0.0029261112213134766
0.0029261112213134766
0.0029425621032714844
0.0029256343841552734
0.0029265880584716797
0.0038976669311523438
0.002925872802734375
0.0029251575469970703
0.0029134750366210938
0.002927541732788086
0.003900289535522461
0.002925395965576172
0.0029261112213134766
0.0029387474060058594
0.003905057907104492
0.0029222965240478516
0.002931833267211914
0.003904104232788086
0.002905607223510742
0.0029082298278808594
0.002926349639892578
0.0039026737213134766
0.002925395965576172
0.0039005279541015625
0.0029463768005371094
0.002926349639892578
0.002925395965576172
0.0029261112213134766
0.0029082298278808594
0.0029439926147460938
0.002927541732788086
0.00290679931640625
0.002943754196166992
0.0029268264770507812
0.0029077529907226562
0.0039217472076416016
0.002922534942626953
0.0019681453704833984
0.0019505023956298828
0.0029091835021972656
0.0029077529907226562
0.0029256343841552734
0.002925872802734375
0.002938508987426758
0.002926349639892578
0.0029261112213134766
0.002930164337158203
0.0029096603393554688
0.003922462463378906
0.0029048919677734375
0.002938985824584961
0.0029261112213134766
0.0039055347442626953
0.002928495407104492
0.002943754196166992
0.0029256343841552734
0.002927064895629883
0.0038831233978271484
0.0029191970825195312
0.0039212703704833984
0.002925395965576172
0.002919912338256836
0.002925872802734375
0.0029366016387939453
0.0029129981994628906
0.004876375198364258
0.003901958465576172
0.0029265880584716797
0.002928018569946289
0.002925872802734375
0.0029256343841552734
0.002925872802734375
0.002943754196166992
0.002944469451904297
0.002907276153564453
0.0029265880584716797
0.0029261112213134766
0.003901958465576172
0.00391840934753418
0.0029282569885253906
0.002925872802734375
0.0019788742065429688
0.0029125213623046875
0.003902435302734375
0.002925395965576172
0.002925872802734375
0.002938508987426758
0.0029137134552001953
0.00293731689453125
0.0029397010803222656
0.0029115676879882812
0.002926349639892578
0.002926349639892578
0.002925872802734375
0.002925395965576172
0.0029375553131103516
0.002926349639892578
0.0029506683349609375
0.0039017200469970703
0.002909421920776367
0.003904104232788086
0.003899097442626953
0.002925395965576172
0.0029251575469970703
0.002926349639892578
0.00391387939453125
0.003888845443725586
0.0029256343841552734
0.0029392242431640625
0.002923727035522461
0.0029327869415283203
0.0038840770721435547
0.003901243209838867
0.0029184818267822266
0.003904581069946289
0.002936840057373047
0.0038995742797851562
0.0029261112213134766
0.0029311180114746094
0.002908468246459961
0.0029261112213134766
0.002925872802734375
0.0033020973205566406
0.0029261112213134766
0.0029265880584716797
0.0029397010803222656
0.002928018569946289
0.0029392242431640625
0.002928018569946289
0.0029256343841552734
0.0029141902923583984
0.003920793533325195
0.0029234886169433594
0.002926349639892578
0.0039010047912597656
0.0029087066650390625
0.0029439926147460938
0.002928495407104492
0.0029435157775878906
0.0039026737213134766
0.003901243209838867
0.0029277801513671875
0.0029261112213134766
0.002941131591796875
0.0029256343841552734
0.002925395965576172
0.0029265880584716797
0.0039055347442626953
0.0029430389404296875
0.0039014816284179688
0.0029315948486328125
0.003907680511474609
0.0039017200469970703
0.0029256343841552734
0.002928495407104492
0.0038988590240478516
0.002925872802734375
0.0029265880584716797
0.003900289535522461
0.0029153823852539062
0.0029134750366210938
0.0029442310333251953
0.0029196739196777344
0.0038890838623046875
0.0029256343841552734
0.0029261112213134766
0.0028984546661376953
0.002908468246459961
0.002941131591796875
0.0029265880584716797
0.0028951168060302734
0.002925872802734375
0.0039031505584716797
0.0029463768005371094
0.0029039382934570312
0.0029435157775878906
0.0029129981994628906
0.002943277359008789
0.002908945083618164
0.0029211044311523438
0.003901958465576172
0.0039014816284179688
0.002925872802734375
0.002925872802734375
0.0039014816284179688
0.0029256343841552734
0.002913951873779297
0.0029451847076416016
0.0029265880584716797
0.00391387939453125
0.0029134750366210938
0.002944469451904297
0.002907991409301758
0.002925395965576172
0.0029261112213134766
0.003915071487426758
0.0029304027557373047
0.002925872802734375
0.0038847923278808594
0.002937793731689453
0.0029261112213134766
0.002926349639892578
0.002913236618041992
0.002925872802734375
0.002947568893432617
0.003897428512573242
0.0029082298278808594
0.002925872802734375
0.0039017200469970703
0.003920555114746094
0.0029249191284179688
0.0029211044311523438
0.0039010047912597656
0.0029239654541015625
0.0029277801513671875
0.0029265880584716797
0.002930164337158203
0.0029087066650390625
0.003902912139892578
0.003900766372680664
0.0029375553131103516
0.0038902759552001953
0.0029249191284179688
0.0039141178131103516
0.002925872802734375
0.0029137134552001953
0.0029296875
0.0029289722442626953
0.0029265880584716797
0.002926349639892578
0.003889322280883789
0.002927064895629883
0.003899812698364258
0.002938508987426758
0.003911018371582031
0.002916574478149414
0.002925872802734375
0.0029134750366210938
0.002926349639892578
0.002927064895629883
0.0029120445251464844
0.003918647766113281
0.002908945083618164
0.0029380321502685547
0.002923727035522461
0.0039014816284179688
0.002913236618041992
0.0029129981994628906
0.003911495208740234
0.0029435157775878906
0.003894805908203125
0.002925872802734375
0.0029265880584716797
0.0029129981994628906
0.0039017200469970703
0.003913402557373047
0.0029261112213134766
0.0029134750366210938
0.002926349639892578
0.0039038658142089844
0.003918886184692383
0.0029234886169433594
0.0029218196868896484
0.0029153823852539062
0.002901315689086914
0.0029354095458984375
0.002925872802734375
0.0029306411743164062
0.003901958465576172
0.0029256343841552734
0.003901243209838867
0.0029213428497314453
0.003909111022949219
0.0038819313049316406
0.0029251575469970703
0.002926349639892578
0.0029256343841552734
0.0039014816284179688
0.0029442310333251953
0.002925395965576172
0.0039014816284179688
0.002926349639892578
0.0029268264770507812
0.0029430389404296875
0.0039017200469970703
0.0029265880584716797
0.003893613815307617
0.0039048194885253906
0.002925395965576172
0.002925872802734375
0.0039017200469970703
0.0029304027557373047
0.002928018569946289
0.002907276153564453
0.0029387474060058594
0.003888845443725586
0.003918170928955078
0.0038940906524658203
0.0029261112213134766
0.0029294490814208984
0.0039010047912597656
0.0029134750366210938
0.0029387474060058594
0.0039055347442626953
0.0038802623748779297
0.002943754196166992
0.0029256343841552734
0.002912759780883789
0.003914356231689453
0.003901958465576172
0.0029251575469970703
0.0029268264770507812
0.002925395965576172
0.0029261112213134766
0.002913951873779297
0.004896640777587891
0.003890514373779297
0.0029296875
0.0029256343841552734
0.00389862060546875
0.002930879592895508
0.0029299259185791016
0.002928018569946289
0.002925872802734375
0.002926349639892578
0.002925872802734375
0.002925872802734375
0.003914356231689453
0.0038886070251464844
0.0029408931732177734
0.002926349639892578
0.003888845443725586
0.0039021968841552734
0.002945423126220703
0.0038983821868896484
0.002925872802734375
0.0029277801513671875
0.0029261112213134766
0.002926349639892578
0.003901243209838867
0.0039017200469970703
0.002946138381958008
0.003893613815307617
0.0029265880584716797
0.0029304027557373047
0.0029261112213134766
0.0039010047912597656
0.0029261112213134766
0.0039017200469970703
0.002920389175415039
0.0038976669311523438
0.0029261112213134766
0.002926349639892578
0.0039014816284179688
0.0029408931732177734
0.003905773162841797
0.002925872802734375
0.0029265880584716797
0.002910137176513672
0.0029418468475341797
0.003904581069946289
0.002927064895629883
0.0038993358612060547
0.002925872802734375
0.0039026737213134766
0.002942323684692383
0.0029206275939941406
0.0029282569885253906
0.0029277801513671875
0.002926349639892578
0.0029387474060058594
0.003888845443725586
0.003924846649169922
0.002916097640991211
0.0038878917694091797
0.0029439926147460938
0.0038847923278808594
0.002942323684692383
0.002925872802734375
0.003919124603271484
0.0029213428497314453
0.003901243209838867
0.0029261112213134766
0.003901243209838867
0.002927541732788086
0.003894329071044922
0.002931356430053711
0.003901958465576172
0.0029261112213134766
0.0029256343841552734
0.003907680511474609
0.0029249191284179688
0.0038847923278808594
0.0029180049896240234
0.0029261112213134766
0.0039017200469970703
0.002925872802734375
0.0029141902923583984
0.004877567291259766
0.005852937698364258
0.0039005279541015625
0.003900289535522461
0.0039017200469970703
0.0029261112213134766
0.003900289535522461
0.002925395965576172
0.0029268264770507812
0.0029256343841552734
0.003901243209838867
0.002925395965576172
0.003901243209838867
0.002926349639892578
0.002926349639892578
0.0039017200469970703
0.003904104232788086
0.0038983821868896484
0.0029261112213134766
0.002926349639892578
0.003901243209838867
0.003901243209838867
0.0029265880584716797
0.003900289535522461
0.0029265880584716797
0.00487828254699707
0.0039005279541015625
0.003901243209838867
0.0039021968841552734
0.0039005279541015625
0.0039005279541015625
0.003901958465576172
0.002925872802734375
0.0039014816284179688
0.0029261112213134766
0.0039017200469970703
0.0029289722442626953
0.0039000511169433594
0.0039017200469970703
0.002926349639892578
0.003901243209838867
0.002926349639892578
0.004878044128417969
0.003900289535522461
0.0029261112213134766
0.0039014816284179688
0.003901243209838867
0.0029261112213134766
0.0048902034759521484
0.0029125213623046875
0.002925872802734375
0.0029277801513671875
0.0048656463623046875
0.002925872802734375
0.002925395965576172
0.0039014816284179688
0.0039014816284179688
0.004876852035522461
0.0029256343841552734
0.0029387474060058594
0.003888845443725586
0.003919839859008789
0.0029082298278808594
0.0039005279541015625
0.002926349639892578
0.002936124801635742
0.0029261112213134766
0.004877328872680664
0.0029287338256835938
0.003900766372680664
0.002925872802734375
0.003914594650268555
0.0039014816284179688
0.00290679931640625
0.003919124603271484
0.002907276153564453
0.0039017200469970703
0.002926349639892578
0.003902435302734375
0.002925872802734375
0.0039010047912597656
0.002926349639892578
0.0039010047912597656
0.0039017200469970703
0.0029261112213134766
0.002925395965576172
0.0039014816284179688
0.0029256343841552734
0.003901958465576172
0.0029261112213134766
0.003899812698364258
0.0029251575469970703
0.0039017200469970703
0.002927064895629883
0.003900289535522461
0.002925395965576172
0.003901243209838867
0.002925872802734375
0.0039021968841552734
0.003901958465576172
0.0029251575469970703
0.0039014816284179688
0.0029256343841552734
0.0044744014739990234
0.0029256343841552734
0.003901958465576172
0.002925872802734375
0.0039017200469970703
0.003902435302734375
0.0038995742797851562
0.0029268264770507812
0.0029261112213134766
0.0039017200469970703
0.002926349639892578
0.0039014816284179688
0.0029251575469970703
0.0029261112213134766
0.003915071487426758
0.002923727035522461
0.0029261112213134766
0.0029370784759521484
0.0039017200469970703
0.002926349639892578
0.0029306411743164062
0.002925395965576172
0.0038847923278808594
0.003920793533325195
0.0039017200469970703
0.0029206275939941406
0.003889322280883789
0.003914833068847656
0.0039005279541015625
0.0038979053497314453
0.002926349639892578
0.0029370784759521484
0.002925872802734375
0.003888845443725586
0.0038700103759765625
0.0029134750366210938
0.0048902034759521484
0.0039000511169433594
0.002926349639892578
0.0038983821868896484
0.0038917064666748047
0.003902435302734375
0.006825685501098633
0.002925872802734375
0.0078046321868896484
0.0038995742797851562
0.0039017200469970703
0.0039014816284179688
0.004876613616943359
0.0029256343841552734
0.003901243209838867
0.0029261112213134766
0.0039021968841552734
0.003901243209838867
0.002925395965576172
0.0029261112213134766
0.002925872802734375
0.0039021968841552734
0.0039005279541015625
0.002925872802734375
0.003901243209838867
0.002927064895629883
0.0039010047912597656
0.0029261112213134766
0.002925395965576172
0.0039014816284179688
0.0029268264770507812
0.003893613815307617
0.0029261112213134766
0.0039014816284179688
0.002925872802734375
0.0039017200469970703
0.003904104232788086
0.00389862060546875
0.002926349639892578
0.0029273033142089844
0.0048754215240478516
0.0029268264770507812
0.0039005279541015625
0.0029261112213134766
0.003901243209838867
0.002925872802734375
0.0029265880584716797
0.002925395965576172
0.002925872802734375
0.003901243209838867
0.002925872802734375
0.0029256343841552734
0.00292205810546875
0.002925395965576172
0.002940654754638672
0.0029134750366210938
0.0039136409759521484
0.002926349639892578
0.003901243209838867
0.002913951873779297
0.0029265880584716797
0.002925872802734375
0.0029456615447998047
0.0029234886169433594
0.002936840057373047
0.003902435302734375
0.003903627395629883
0.0038878917694091797
0.0038831233978271484
0.0039141178131103516
0.0038895606994628906
0.003912925720214844
0.002931356430053711
0.0029380321502685547
0.002926349639892578
0.003900766372680664
0.002930879592895508
0.0029172897338867188
0.003912687301635742
0.0029265880584716797
0.0039010047912597656
0.0038917064666748047
0.003908634185791016
0.002925395965576172
0.002927541732788086
0.0029249191284179688
0.0029401779174804688
0.0038919448852539062
0.0039005279541015625
0.0029218196868896484
0.003901243209838867
0.002925872802734375
0.003919124603271484
0.003901243209838867
0.0029091835021972656
0.0039014816284179688
0.002926349639892578
0.0039014816284179688
0.003919124603271484
0.0038840770721435547
0.002926349639892578
0.0039010047912597656
0.004877567291259766
0.0039005279541015625
0.003901243209838867
0.0039021968841552734
0.0039005279541015625
0.003911256790161133
0.002916097640991211
0.0039017200469970703
0.0029261112213134766
0.003901243209838867
0.0039017200469970703
0.002925395965576172
0.0039031505584716797
0.0029299259185791016
0.0038874149322509766
0.0029256343841552734
0.00391387939453125
0.002931356430053711
0.0038836002349853516
0.003901243209838867
0.002925395965576172
0.0029239654541015625
0.002925395965576172
0.0029261112213134766
0.002914905548095703
0.003914356231689453
0.002913236618041992
0.0039017200469970703
0.003911495208740234
0.0029256343841552734
0.003913402557373047
0.0038902759552001953
0.002915620803833008
0.0039157867431640625
0.00390625
0.0038995742797851562
0.0029261112213134766
0.002938508987426758
0.0029261112213134766
0.002937793731689453
0.002925872802734375
0.003907680511474609
0.0038940906524658203
0.0029244422912597656
0.0029342174530029297
0.003899097442626953
0.003954887390136719
0.0038423538208007812
0.003911733627319336
0.0038900375366210938
0.00391077995300293
0.002926349639892578
0.003908634185791016
0.0038843154907226562
0.003914594650268555
0.0029256343841552734
0.002925872802734375
0.0039021968841552734
0.003888368606567383
0.003901958465576172
0.004876375198364258
0.002943754196166992
0.0039000511169433594
0.0029244422912597656
0.0039010047912597656
0.0058710575103759766
0.003899097442626953
0.0029261112213134766
0.003901958465576172
0.0029261112213134766
0.0039017200469970703
0.003883838653564453
0.003916740417480469
