^C:\USERS\ХОЗЯИН\SOURCE\REPOS\CONSOLEAPPLICATION5\CONSOLEAPPLICATION5\DEBUG\CONSOLEAPPLICATION5.OBJ|C:\USERS\ХОЗЯИН\SOURCE\REPOS\CONSOLEAPPLICATION5\CONSOLEAPPLICATION5\DEBUG\PCH.OBJ
E:\WINDOWS KITS\10\LIB\10.0.17134.0\UM\X86\KERNEL32.LIB
E:\WINDOWS KITS\10\LIB\10.0.17134.0\UM\X86\USER32.LIB
E:\WINDOWS KITS\10\LIB\10.0.17134.0\UM\X86\GDI32.LIB
E:\WINDOWS KITS\10\LIB\10.0.17134.0\UM\X86\WINSPOOL.LIB
E:\WINDOWS KITS\10\LIB\10.0.17134.0\UM\X86\COMDLG32.LIB
E:\WINDOWS KITS\10\LIB\10.0.17134.0\UM\X86\ADVAPI32.LIB
E:\WINDOWS KITS\10\LIB\10.0.17134.0\UM\X86\SHELL32.LIB
E:\WINDOWS KITS\10\LIB\10.0.17134.0\UM\X86\OLE32.LIB
E:\WINDOWS KITS\10\LIB\10.0.17134.0\UM\X86\OLEAUT32.LIB
E:\WINDOWS KITS\10\LIB\10.0.17134.0\UM\X86\UUID.LIB
E:\WINDOWS KITS\10\LIB\10.0.17134.0\UM\X86\ODBC32.LIB
E:\WINDOWS KITS\10\LIB\10.0.17134.0\UM\X86\ODBCCP32.LIB
C:\USERS\Хозяин\SOURCE\REPOS\CONSOLEAPPLICATION5\CONSOLEAPPLICATION5\DEBUG\CONSOLEAPPLICATION5.OBJ
C:\USERS\Хозяин\SOURCE\REPOS\CONSOLEAPPLICATION5\CONSOLEAPPLICATION5\DEBUG\PCH.OBJ
C:\WINDOWS\SYSTEM32\TZRES.DLL
C:\WINDOWS\GLOBALIZATION\SORTING\SORTDEFAULT.NLS
E:\PROGRAM FILES (X86)\MICROSOFT VISUAL STUDIO\2017\COMMUNITY\VC\TOOLS\MSVC\14.15.26726\LIB\X86\MSVCPRTD.LIB
E:\PROGRAM FILES (X86)\MICROSOFT VISUAL STUDIO\2017\COMMUNITY\VC\TOOLS\MSVC\14.15.26726\LIB\X86\MSVCRTD.LIB
E:\PROGRAM FILES (X86)\MICROSOFT VISUAL STUDIO\2017\COMMUNITY\VC\TOOLS\MSVC\14.15.26726\LIB\X86\OLDNAMES.LIB
E:\PROGRAM FILES (X86)\MICROSOFT VISUAL STUDIO\2017\COMMUNITY\VC\TOOLS\MSVC\14.15.26726\LIB\X86\VCRUNTIMED.LIB
E:\WINDOWS KITS\10\LIB\10.0.17134.0\UCRT\X86\UCRTD.LIB
E:\PROGRAM FILES (X86)\MICROSOFT VISUAL STUDIO\2017\COMMUNITY\VC\TOOLS\MSVC\14.15.26726\BIN\HOSTX86\X86\MSPDBSRV.EXE
