^C:\USERS\ХОЗЯИН\SOURCE\REPOS\ЛБ8\ЛБ8\PCH.CPP
/c /ZI /JMC /nologo /W3 /WX- /diagnostics:classic /sdl /Od /D _CRT_SECURE_NO_WARNINGS /D _DEBUG /D _CONSOLE /D _UNICODE /D UNICODE /Gm- /EHsc /RTC1 /MDd /GS /fp:precise /permissive- /Zc:wchar_t /Zc:forScope /Zc:inline /Yc"pch.h" /Fp"X64\DEBUG\ЛБ8.PCH" /Fo"X64\DEBUG\\" /Fd"X64\DEBUG\VC141.PDB" /Gd /TP /FC C:\USERS\ХОЗЯИН\SOURCE\REPOS\ЛБ8\ЛБ8\PCH.CPP
^C:\USERS\ХОЗЯИН\SOURCE\REPOS\ЛБ8\ЛБ8\ЛБ8.CPP
/c /ZI /JMC /nologo /W3 /WX- /diagnostics:classic /sdl /Od /D _CRT_SECURE_NO_WARNINGS /D _DEBUG /D _CONSOLE /D _UNICODE /D UNICODE /Gm- /EHsc /RTC1 /MDd /GS /fp:precise /permissive- /Zc:wchar_t /Zc:forScope /Zc:inline /Yu"pch.h" /Fp"X64\DEBUG\ЛБ8.PCH" /Fo"X64\DEBUG\\" /Fd"X64\DEBUG\VC141.PDB" /Gd /TP /FC C:\USERS\ХОЗЯИН\SOURCE\REPOS\ЛБ8\ЛБ8\ЛБ8.CPP
