^C:\USERS\ХОЗЯИН\SOURCE\REPOS\ЛБ8\ЛБ8\X64\DEBUG\PCH.OBJ|C:\USERS\ХОЗЯИН\SOURCE\REPOS\ЛБ8\ЛБ8\X64\DEBUG\ЛБ8.OBJ
C:\USERS\Хозяин\SOURCE\REPOS\лб8\X64\DEBUG\лб8.EXE
C:\USERS\Хозяин\SOURCE\REPOS\лб8\X64\DEBUG\лб8.ILK
C:\USERS\ХОЗЯИН\SOURCE\REPOS\ЛБ8\X64\DEBUG\ЛБ8.PDB
