^C:\USERS\ХОЗЯИН\SOURCE\REPOS\ЛБ6\ЛБ6\PCH.CPP
C:\USERS\Хозяин\SOURCE\REPOS\лб6\лб6\DEBUG\лб6.PCH
C:\USERS\Хозяин\SOURCE\REPOS\лб6\лб6\DEBUG\VC141.PDB
C:\USERS\Хозяин\SOURCE\REPOS\лб6\лб6\DEBUG\VC141.IDB
C:\USERS\Хозяин\SOURCE\REPOS\лб6\лб6\DEBUG\PCH.OBJ
^C:\USERS\ХОЗЯИН\SOURCE\REPOS\ЛБ6\ЛБ6\ЛБ6.CPP
C:\USERS\Хозяин\SOURCE\REPOS\лб6\лб6\DEBUG\VC141.PDB
C:\USERS\Хозяин\SOURCE\REPOS\лб6\лб6\DEBUG\VC141.IDB
C:\USERS\Хозяин\SOURCE\REPOS\лб6\лб6\DEBUG\лб6.OBJ
